id,user_id,agency_id,agency_rep,agency_executive
1,10136,53,1,
2,7565,47,,
3,10520,48,,
4,3819,50,,
5,1904,59,,
6,10519,50,,
7,1782,59,,
8,10461,59,,
9,10518,50,,
10,1200,50,,
11,10516,50,,
12,5687,42,,
13,1976,59,,
14,2165,45,,
15,5831,48,,
16,1624,59,,
17,10506,50,,
18,6198,48,,
19,196,2,1,
20,2005,59,,
21,10505,58,,
22,6232,42,,
23,1465,48,,
24,6837,48,,
25,6515,48,,
26,1759,48,,
27,3409,50,,
28,149,48,,
29,3996,42,,
30,2528,50,,
31,2905,50,,
32,4009,48,,
33,4438,48,,
34,1691,48,,
35,3422,48,,
36,10483,48,,
37,6539,48,,
38,1295,33,,
39,5818,48,,
40,1984,48,,
41,3636,48,,
42,4224,33,,
43,10482,34,1,
44,2236,42,,
45,3806,50,,
46,2729,48,,
47,10480,48,,
48,2040,61,1,
49,1521,48,,
50,2230,42,,
51,2231,42,,
52,6598,48,,
53,10469,54,,
54,3104,48,,
55,644,48,,
56,10466,48,,
57,6569,48,,
58,5332,48,,
59,751,48,,
60,6211,48,,
61,2571,50,,
62,1776,38,,
63,2411,62,1,
64,4998,42,,
65,5193,50,,
66,4805,35,1,
67,6037,50,,
68,5386,50,,
69,3601,48,,
70,4875,50,1,
71,3108,48,,
72,4726,48,,
73,4583,48,,
74,3354,48,,
75,34,62,,
76,6590,59,,
77,10453,48,,
78,10452,48,,
79,6806,48,,
80,2916,59,1,
81,2429,48,,
82,902,58,,
83,6454,48,,
84,6435,58,,
85,5323,48,,
86,2887,59,,
87,6523,48,,
88,1343,31,,
89,5170,50,,
90,1338,42,,
91,5784,59,,
92,4593,50,,
93,10449,58,,
94,10337,59,,
95,10473,59,,
96,7290,49,,
97,3746,50,,
98,382,48,,
99,1545,48,,
100,3592,48,,
101,10446,54,1,
102,10444,50,,
103,2655,61,,
104,69,33,,
105,6022,50,,
106,7161,62,,
107,1324,50,,
108,10441,60,,
109,10440,58,,
110,10439,48,,
111,6656,48,,
112,4743,48,,
113,1849,48,,
114,1548,54,,
115,2388,50,,
116,5383,50,,
117,5372,48,,
118,2910,48,,
119,4210,50,,
120,3797,50,,
121,7267,58,,
122,6417,48,,
123,10417,56,,
124,10471,59,,
125,7355,58,,
126,3048,48,,
127,5685,48,,
128,3745,56,,
129,2837,32,,
130,3173,48,,
131,6657,48,,
132,3285,48,,
133,4010,48,,
134,4163,48,,
135,1179,42,,
136,1798,48,,
137,5783,59,,
138,1118,62,,
139,10415,50,,
140,10414,54,,
141,6505,59,,
142,5631,48,,
143,10412,48,,
144,4557,42,,
145,7373,48,,
146,3475,50,,
147,4784,50,,
148,10411,48,,
149,4427,42,,
150,3326,48,,
151,7377,60,,
152,10410,48,,
153,7227,58,,
154,7427,50,,
155,10409,48,,
156,3343,48,,
157,8607,48,,
158,5839,48,,
159,10408,50,,
160,3247,31,,
161,5808,48,,
162,4260,50,,
163,1738,42,,
164,4809,50,,
165,7133,48,,
166,1638,61,1,
167,5764,48,,
168,10413,54,,
169,4089,48,,
170,878,38,,
171,3056,33,,
172,5732,50,,
173,3869,48,,
174,10405,56,,
175,444,62,,
176,2671,48,,
177,5626,50,,
178,5499,48,,
179,5421,42,,
180,1450,48,,
181,1185,56,,
182,5472,60,,
183,5740,59,,
184,3527,59,,
185,2201,54,,
186,10404,54,,
187,2261,43,,
188,5357,48,,
189,7140,59,,
190,6602,48,,
191,1110,62,,
192,3823,48,,
193,3107,50,,
194,10390,48,,
195,2865,60,,
196,10490,59,,
197,1937,48,,
198,6702,59,,
199,49,48,,
200,3923,42,,
201,10388,54,,
202,2057,54,1,1
203,2707,58,,
204,488,55,,
205,7028,48,,
206,3470,48,,
207,6325,50,,
208,10385,58,,
209,169,62,,
210,121,62,,
211,2094,48,,
212,6023,48,,
213,6563,48,,
214,4352,50,,
215,61,62,,
216,172,48,,
217,7297,48,,
218,6847,48,,
219,10328,59,,
220,7732,48,,
221,1409,48,,
222,10504,62,,
223,230,50,1,
224,4889,42,,
225,5663,46,,
226,6978,54,,
227,2786,42,,
228,2355,48,,
229,73,62,,
230,6645,59,,
231,4999,50,,
232,10372,50,,
233,10375,50,,
234,4296,48,,
235,6774,58,,
236,6474,48,,
237,2011,21,,
238,2323,54,,
239,2225,50,,
240,4182,48,,
241,326,62,,
242,1598,48,,
243,6441,50,,
244,3199,33,,
245,2557,50,,
246,10368,48,,
247,10472,59,,
248,35,62,,
249,10367,60,,
250,893,48,,
251,6384,59,,
252,10365,54,,
253,10364,48,,
254,7407,60,,
255,1876,50,,
256,3537,50,,
257,10362,48,,
258,1451,48,,
259,1875,33,,
260,3780,42,,
261,984,48,,
262,5100,48,,
263,118,4,1,
264,6463,48,,
265,1935,58,,
266,10358,48,,
267,44,56,,
268,45,56,,
269,7441,50,,
270,10356,58,,
271,9974,54,,
272,5637,54,,
273,10366,54,1,
274,1375,61,,
275,887,50,,
276,10352,48,,
277,5736,48,,
278,631,62,,
279,3156,48,,
280,10349,50,,
281,2471,27,1,
282,1105,62,,
283,5002,50,,
284,8061,50,,
285,1592,48,,
286,622,48,,
287,4449,48,,
288,10347,50,,
289,10348,54,,
290,4201,59,,
291,10346,50,,
292,7370,59,,
293,593,59,,
294,5968,50,,
295,10344,50,,
296,313,62,,
297,551,48,,
298,10343,48,,
299,10342,54,,
300,10340,48,,
301,2828,59,,
302,2772,59,,
303,2975,42,,
304,10338,50,,
305,102,8,,
306,10336,50,,
307,3541,45,,
308,10335,48,,
309,4444,48,,
310,10334,48,,
311,10333,50,,
312,917,62,,
313,1728,62,,
314,30,61,,
315,227,58,,
316,5711,42,,
317,6034,50,1,
318,1325,61,1,
319,6762,48,,
320,1408,48,,
321,4054,48,,
322,5395,42,,
323,5768,50,,
324,1098,62,,
325,2432,48,,
326,5551,48,,
327,10327,48,,
328,3026,48,,
329,340,48,,
330,2042,48,,
331,1553,33,,
332,3180,48,,
333,2888,48,,
334,3608,30,,
335,3138,50,,
336,10324,56,1,
337,10323,48,,
338,6331,48,,
339,2369,48,,
340,10320,48,,
341,5785,59,,
342,7097,50,,
343,5267,48,,
344,3437,48,,
345,782,48,,
346,1403,48,,
347,7383,50,,
348,5465,48,,
349,2748,48,,
350,1674,50,,
351,2486,42,,
352,7423,54,,
353,2176,33,,
354,10318,58,,
355,5280,54,,
356,1934,48,,
357,249,40,,
358,7232,48,,
359,10316,48,,
360,5129,48,,
361,10319,54,,
362,3176,48,,
363,2614,33,,
364,1411,48,,
365,3414,41,,
366,1453,48,,
367,6313,58,,
368,10315,50,,
369,1917,48,,
370,1209,50,,
371,1112,62,,
372,5974,58,,
373,10314,48,,
374,2596,31,,
375,4113,48,,
376,4256,48,,
377,1689,48,,
378,333,62,,
379,1512,48,,
380,980,59,,
381,934,48,,
382,3982,45,,
383,1602,48,,
384,10309,50,,
385,1816,33,,
386,2344,54,,
387,4476,50,,
388,6418,48,,
389,6210,50,,
390,5461,59,,
391,1839,58,,
392,886,50,,
393,2733,48,,
394,5174,60,,
395,1086,62,,
396,10302,54,,
397,3070,42,,
398,304,45,,
399,1390,42,,
400,2702,48,,
401,10242,59,,
402,1653,48,,
403,371,58,,
404,2976,48,,
405,2948,48,,
406,10286,48,,
407,6137,42,,
408,3189,48,,
409,4192,48,,
410,7474,48,,
411,10282,48,,
412,183,58,,
413,2601,50,,
414,10281,50,,
415,4720,48,,
416,6316,48,,
417,3325,48,,
418,477,62,,
419,4344,33,1,
420,974,62,,
421,6498,48,,
422,10274,48,,
423,4539,42,,
424,337,62,,
425,3839,50,,
426,2088,56,,
427,6225,50,,
428,2878,59,,
429,4470,48,,
430,7105,48,,
431,7144,59,,
432,341,50,,
433,10270,50,,
434,10269,54,,
435,2097,42,,
436,6952,48,,
437,6163,48,,
438,10268,50,,
439,5875,48,,
440,10263,50,,
441,5133,59,,
442,1859,33,,
443,6139,48,,
444,10262,50,,
445,7093,48,,
446,350,62,,
447,3061,50,,
448,10259,48,,
449,1374,61,,
450,6058,58,,
451,1175,62,,
452,4181,48,,
453,10218,54,,
454,4247,58,,
455,1328,50,,
456,3291,48,,
457,2209,31,,
458,397,9,,
459,10215,54,,
460,4047,42,,
461,6019,50,,
462,1600,48,,
463,10204,56,,
464,10203,48,,
465,2766,59,,
466,3021,50,,
467,2658,31,,
468,401,48,,
469,584,62,,
470,7198,50,,
471,6224,60,,
472,4936,50,,
473,10198,56,,
474,1878,50,,
475,10197,48,,
476,5403,50,,
477,4189,48,,
478,705,48,,
479,7208,59,,
480,3231,31,,
481,1377,61,,
482,3978,42,,
483,4490,54,,
484,6423,58,,
485,2993,48,,
486,1462,48,,
487,2824,61,1,
488,404,48,,
489,5117,61,1,
490,6577,48,,
491,2012,42,,
492,10193,50,,
493,10190,50,,
494,3423,50,,
495,120,42,,
496,10185,54,,
497,78,48,,
498,3689,54,,
499,1683,48,,
500,5349,48,,
501,2408,33,,
502,1104,58,,
503,10183,50,,
504,5038,50,,
505,3672,42,,
506,10182,50,,
507,2289,31,,
508,3991,33,,
509,10181,48,,
510,6065,59,,
511,1456,48,,
512,3329,59,,
513,1897,31,,
514,2665,42,,
515,1522,48,,
516,1121,48,,
517,2105,42,,
518,4374,48,,
519,7115,59,,
520,6173,50,,
521,2548,59,,
522,7117,59,,
523,4812,50,,
524,3532,59,,
525,3699,48,,
526,1506,61,,
527,3118,58,1,
528,3419,48,,
529,2520,50,,
530,4790,50,,
531,991,50,,
532,556,59,,
533,10179,48,,
534,4082,58,,
535,4073,48,,
536,5801,42,,
537,5011,50,,
538,1516,30,,
539,5371,48,,
540,5543,58,,
541,2434,54,,
542,4290,54,,
543,6420,58,,
544,1872,48,,
545,2945,31,,
546,4747,48,,
547,10289,59,,
548,3961,50,,
549,3891,42,,
550,3420,48,,
551,1656,48,,
552,1762,62,,
553,6434,58,,
554,3503,58,,
555,3272,48,,
556,4900,58,,
557,6672,50,,
558,4423,42,,
559,2706,48,,
560,10142,48,,
561,4188,48,,
562,2335,48,,
563,1300,59,1,
564,1439,48,,
565,3398,48,,
566,5684,48,,
567,2830,61,,
568,3779,42,,
569,3800,48,,
570,3352,48,,
571,5026,50,,
572,10127,59,1,1
573,7432,50,1,1
574,7434,58,1,1
575,903,48,,
576,7473,50,,
577,4021,48,,
578,3809,50,,
579,1378,48,,
580,2070,48,,
581,3025,33,,
582,10121,50,,
583,5037,50,,
584,1768,59,,
585,1211,50,,
586,5498,48,,
587,1,30,,
588,7311,48,,
589,7304,48,,
590,667,48,,
591,3772,58,,
592,6543,58,,
593,6119,59,,
594,10115,58,,
595,6079,42,1,
596,2624,50,,
597,7485,59,,
598,6584,48,,
599,7348,54,,
600,5454,50,,
601,6491,48,,
602,144,48,,
603,4615,54,1,
604,4146,42,,
605,1536,48,,
606,988,54,,
607,4867,42,,
608,2593,42,,
609,318,62,,
610,10017,59,,
611,989,50,,
612,10108,50,,
613,6221,58,,
614,7442,58,,
615,10105,48,,
616,3395,48,,
617,9936,59,,
618,706,62,,
619,10103,50,,
620,5708,48,,
621,1528,48,,
622,1065,62,,
623,1430,48,,
624,10101,50,,
625,7412,59,,
626,4118,48,,
627,3372,54,1,
628,10100,50,,
629,645,48,,
630,1180,13,1,
631,2090,30,,
632,10095,50,,
633,10094,48,,
634,5382,50,,
635,4170,48,,
636,583,48,,
637,5192,56,,
638,3759,48,,
639,301,38,,
640,3783,59,,
641,6550,48,,
642,10079,50,,
643,3397,50,,
644,10078,50,1,
645,3595,50,,
646,2616,48,,
647,6494,48,,
648,6456,48,,
649,1441,48,,
650,1972,48,,
651,6759,44,1,
652,10071,50,,
653,2653,50,,
654,774,33,,
655,10063,50,,
656,1463,48,,
657,6507,48,,
658,5677,50,,
659,6027,50,,
660,4830,42,,
661,3315,54,,
662,10062,50,,
663,5109,50,,
664,5651,50,,
665,890,48,,
666,745,48,,
667,5650,50,,
668,331,62,,
669,1588,48,,
670,10061,54,,
671,6042,50,,
672,2310,38,,
673,10059,50,,
674,2880,50,,
675,4086,42,,
676,10058,50,,
677,7265,59,,
678,6504,48,,
679,5787,62,,
680,10056,50,,
681,274,50,,
682,2272,31,,
683,2730,48,,
684,2546,48,,
685,10055,50,,
686,5690,48,,
687,4966,50,,
688,1932,48,,
689,4874,50,,
690,7299,58,,
691,7182,48,,
692,10053,60,,
693,5097,50,,
694,6855,54,,
695,517,48,,
696,5579,50,,
697,710,9,1,
698,3038,59,,
699,1106,62,,
700,3205,50,,
701,4321,42,,
702,6950,48,,
703,10052,50,,
704,2367,59,,
705,10048,50,,
706,10047,50,,
707,2826,48,,
708,596,50,,
709,708,62,,
710,10041,37,1,
711,10023,50,,
712,1243,48,,
713,1799,48,,
714,7116,50,,
715,7421,54,1,
716,2550,31,,
717,9962,59,,
718,7321,58,,
719,6047,48,,
720,6002,50,,
721,2523,54,,
722,3234,48,,
723,7306,48,,
724,6073,50,,
725,7114,50,,
726,1087,48,,
727,2966,33,,
728,10138,59,,
729,3030,33,,
730,5508,48,,
731,10029,48,,
732,6301,48,,
733,4810,50,,
734,1356,48,,
735,5230,58,,
736,6256,50,,
737,10028,58,,
738,2617,48,,
739,5615,60,,
740,3676,59,,
741,10027,58,,
742,3889,48,,
743,3169,50,,
744,1714,61,1,
745,2972,54,,
746,1381,48,,
747,10026,50,,
748,1208,50,,
749,5775,59,,
750,10025,48,,
751,10022,50,,
752,4161,50,,
753,5895,48,,
754,4191,48,,
755,3174,48,,
756,5854,50,,
757,6135,42,,
758,2657,50,,
759,7347,54,1,
760,319,62,,
761,3439,48,,
762,7298,59,,
763,10021,60,,
764,1908,19,1,
765,10013,48,,
766,1679,38,,
767,6489,48,,
768,3366,48,,
769,291,59,,
770,1347,59,,
771,6916,59,,
772,4865,50,,
773,7082,48,,
774,1448,48,,
775,7249,48,,
776,6487,48,,
777,10005,48,,
778,2426,33,,
779,569,62,,
780,5505,50,,
781,6081,50,,
782,6095,58,,
783,4912,48,,
784,2660,54,,
785,5731,48,,
786,9985,50,,
787,3529,50,,
788,6393,48,,
789,4379,48,,
790,1292,61,,
791,6500,48,,
792,2839,43,1,
793,259,62,,
794,2387,50,,
795,2836,32,,
796,75,8,,
797,7411,48,1,
798,7386,48,,
799,1418,48,,
800,3653,59,,
801,2274,42,,
802,3533,48,,
803,9973,54,,
804,1912,58,,
805,6161,42,,
806,9972,50,,
807,9971,50,,
808,3054,59,,
809,1304,60,,
810,6376,58,,
811,9970,50,,
812,2746,54,,
813,3381,59,,
814,3514,48,,
815,1664,48,,
816,428,62,,
817,4731,50,,
818,3900,56,,
819,3259,46,,
820,3421,48,,
821,9963,50,,
822,905,33,,
823,9959,48,,
824,1707,62,,
825,5948,59,,
826,6878,48,,
827,1505,48,,
828,9956,48,,
829,9955,48,,
830,2630,54,,
831,6928,48,,
832,6518,48,,
833,9949,58,,
834,4925,48,,
835,10140,59,,
836,2460,48,,
837,3811,50,,
838,9947,48,,
839,3565,48,,
840,6100,48,,
841,6570,48,,
842,5686,48,,
843,3375,33,,
844,4821,48,,
845,5384,50,,
846,3029,33,,
847,5419,48,,
848,7426,50,,
849,3945,33,,
850,6565,48,,
851,9933,48,,
852,621,33,,
853,157,62,,
854,9928,50,,
855,925,62,,
856,810,61,,
857,9926,60,,
858,6170,42,,
859,5226,48,,
860,1531,48,,
861,2703,54,,
862,237,33,,
863,5973,58,,
864,9919,48,,
865,6571,48,,
866,6890,50,,
867,9860,62,,
868,3567,29,1,
869,3539,54,1,
870,4576,59,,
871,3389,48,,
872,761,62,,
873,10377,50,,
874,7253,60,,
875,7314,60,,
876,2314,50,,
877,9797,59,,
878,3701,48,,
879,3656,48,,
880,977,48,,
881,2969,33,,
882,2416,62,1,
883,7475,59,,
884,414,48,,
885,4787,42,,
886,6254,48,,
887,9908,54,,
888,4174,48,,
889,9907,54,,
890,5791,45,,
891,1530,48,,
892,9899,48,,
893,9898,50,,
894,1803,54,,
895,1156,59,,
896,1789,30,,
897,9894,48,,
898,232,58,,
899,3300,41,,
900,412,54,,
901,573,8,1,
902,9884,50,,
903,6362,58,,
904,4984,48,,
905,270,46,,
906,993,62,,
907,1491,50,,
908,3254,50,,
909,3943,33,,
910,1220,50,,
911,9863,59,1,
912,9873,50,,
913,9872,58,,
914,9871,50,,
915,1574,48,,
916,7501,59,,
917,6437,50,,
918,4895,42,,
919,2038,54,,
920,163,58,,
921,5970,50,,
922,9847,50,,
923,1194,38,,
924,3762,42,,
925,5920,48,,
926,458,9,,
927,522,48,,
928,4911,50,,
929,1862,54,,
930,4701,50,,
931,2674,50,,
932,2356,33,,
933,6492,48,,
934,6893,50,,
935,7188,48,,
936,9846,48,,
937,2984,60,,
938,2574,57,,
939,3465,60,,
940,3293,31,,
941,2527,48,,
942,5415,48,,
943,6072,48,,
944,9840,48,,
945,6020,50,,
946,7123,58,,
947,6835,58,,
948,7110,50,,
949,9838,48,,
950,4690,50,,
951,1090,62,,
952,9837,50,,
953,4894,48,,
954,4160,50,,
955,990,62,,
956,9832,50,,
957,652,61,,
958,1116,62,1,
959,6808,62,1,
960,4185,48,,
961,9830,34,1,
962,9767,59,,
963,7450,50,,
964,1043,62,,
965,1990,50,,
966,4931,48,,
967,9824,58,,
968,769,33,,
969,4770,54,,
970,3209,48,,
971,1184,13,1,
972,5032,50,,
973,4698,48,,
974,5049,50,,
975,1425,48,,
976,361,62,,
977,9809,48,,
978,3154,50,,
979,1419,48,,
980,4359,50,,
981,5529,48,,
982,348,4,,
983,9818,50,,
984,5556,48,,
985,502,62,,
986,5868,50,,
987,1840,54,,
988,9816,48,,
989,6469,48,,
990,5907,48,,
991,9817,54,,
992,6782,48,,
993,6354,48,,
994,9813,48,,
995,2524,33,,
996,7142,48,,
997,1036,48,,
998,5163,48,,
999,176,1,1,
1000,3705,59,,
1001,2591,48,,
1002,5185,50,,
1003,3028,48,,
1004,5165,42,,
1005,5075,42,,
1006,9806,50,,
1007,1616,33,,
1008,4961,50,,
1009,9789,48,,
1010,4015,48,,
1011,1485,48,,
1012,5960,48,,
1013,5971,48,,
1014,9862,59,,
1015,4622,61,1,
1016,1333,16,1,
1017,4927,50,,
1018,7443,50,,
1019,8078,60,,
1020,1407,48,,
1021,805,50,,
1022,4807,35,1,
1023,7463,48,,
1024,6800,50,,
1025,7317,59,,
1026,3707,31,,
1027,2634,48,,
1028,3842,54,,
1029,9762,50,,
1030,610,62,,
1031,2168,48,,
1032,2627,50,,
1033,2559,31,,
1034,1120,41,,
1035,1488,48,,
1036,9749,50,,
1037,3744,48,,
1038,4050,33,,
1039,272,62,,
1040,9740,59,,
1041,5487,50,,
1042,268,62,,
1043,3314,48,,
1044,12,50,,
1045,6120,46,,
1046,2421,48,,
1047,6220,42,1,1
1048,4121,48,,
1049,2187,33,,
1050,9738,50,,
1051,9733,50,,
1052,2496,48,,
1053,322,50,,
1054,6228,48,,
1055,6791,50,,
1056,5925,48,,
1057,1444,48,,
1058,3134,41,,
1059,7211,50,,
1060,2929,48,,
1061,5497,50,,
1062,753,48,,
1063,672,48,,
1064,4873,48,,
1065,2224,38,,
1066,3892,48,,
1067,3622,54,,
1068,5738,48,,
1069,3288,50,,
1070,6641,58,,
1071,9730,54,1,
1072,3141,50,,
1073,3192,48,,
1074,520,48,,
1075,9719,50,,
1076,632,62,,
1077,495,48,,
1078,2508,54,,
1079,4542,54,,
1080,1781,42,,
1081,4316,59,,
1082,575,54,,
1083,3931,57,1,
1084,2304,25,1,
1085,5153,48,,
1086,6646,59,,
1087,5284,48,,
1088,951,54,,
1089,66,58,,
1090,9716,50,,
1091,2613,59,,
1092,1578,48,,
1093,1466,48,,
1094,9715,50,,
1095,9734,59,,
1096,6387,48,,
1097,6190,48,,
1098,879,62,,
1099,6497,48,,
1100,14,33,,
1101,6546,50,,
1102,3489,33,,
1103,1796,38,1,
1104,7509,59,,
1105,6479,48,,
1106,6383,48,,
1107,2340,48,,
1108,9696,48,,
1109,2156,59,,
1110,9695,50,,
1111,2605,48,,
1112,9694,48,,
1113,9693,50,,
1114,6578,59,,
1115,2701,48,,
1116,6010,42,,
1117,4640,48,,
1118,3651,48,,
1119,5040,48,,
1120,6054,62,,
1121,4834,48,,
1122,6038,48,,
1123,9691,48,,
1124,1135,62,,
1125,3490,33,,
1126,5179,48,,
1127,9690,48,,
1128,2380,38,,
1129,5604,48,,
1130,501,30,,
1131,4436,48,,
1132,3602,42,,
1133,3577,48,,
1134,1225,59,,
1135,6193,50,,
1136,6044,50,,
1137,4728,59,,
1138,9689,48,,
1139,3492,48,,
1140,68,62,,
1141,9688,48,,
1142,2043,48,,
1143,4327,48,,
1144,5450,48,,
1145,6819,58,,
1146,9687,50,,
1147,7223,48,,
1148,1484,48,,
1149,817,62,,
1150,9683,48,,
1151,6547,48,,
1152,381,33,,
1153,3346,48,,
1154,6521,48,,
1155,9674,59,,
1156,1342,48,,
1157,2600,48,,
1158,6473,48,,
1159,1587,48,,
1160,1667,48,,
1161,2493,48,,
1162,9668,50,,
1163,1811,48,,
1164,6462,48,,
1165,2485,48,,
1166,4933,42,,
1167,7312,48,,
1168,6397,48,,
1169,3172,50,,
1170,8242,48,1,
1171,9657,48,1,1
1172,8243,48,1,
1173,7259,48,1,
1174,7258,48,1,
1175,7263,48,1,
1176,7262,48,1,
1177,7261,48,,
1178,7277,48,1,
1179,7260,48,1,
1180,8241,48,1,
1181,2071,58,,
1182,6436,58,,
1183,3513,48,,
1184,3487,33,,
1185,3909,48,,
1186,9636,48,,
1187,6339,59,,
1188,9635,50,,
1189,6396,48,,
1190,638,48,,
1191,9628,48,,
1192,7385,50,,
1193,2951,33,,
1194,9618,54,,
1195,9617,48,,
1196,4405,48,,
1197,543,48,,
1198,7506,50,,
1199,6638,48,,
1200,9602,54,,
1201,9601,48,,
1202,117,4,1,
1203,3384,48,,
1204,4730,56,,
1205,6486,48,,
1206,6166,48,,
1207,7086,48,,
1208,9600,48,,
1209,1596,48,,
1210,1599,48,,
1211,7359,48,,
1212,2254,54,,
1213,2861,48,,
1214,4058,54,,
1215,1717,54,,
1216,2095,50,,
1217,9598,48,,
1218,615,40,,
1219,5811,48,,
1220,6697,48,,
1221,3827,54,1,
1222,1594,48,,
1223,832,62,,
1224,6070,50,,
1225,9589,58,,
1226,1081,56,,
1227,1081,56,,
1228,1081,56,,
1229,1081,56,,
1230,1400,48,,
1231,3351,48,,
1232,6172,48,,
1233,469,62,,
1234,9579,58,,
1235,9575,48,,
1236,5720,50,,
1237,6603,48,,
1238,6483,48,,
1239,5398,48,,
1240,3769,33,,
1241,2295,48,,
1242,2294,48,,
1243,2359,48,,
1244,7094,60,,
1245,9561,60,,
1246,7111,50,,
1247,2563,48,,
1248,6382,48,,
1249,1519,48,,
1250,6083,50,,
1251,6558,48,,
1252,9554,48,,
1253,9552,56,,
1254,9550,48,,
1255,6665,59,,
1256,518,48,,
1257,9541,48,,
1258,9572,59,,
1259,6481,48,,
1260,2911,48,,
1261,9547,62,,
1262,6787,50,,
1263,9534,54,,
1264,5840,50,,
1265,1455,48,,
1266,6451,48,,
1267,757,62,,
1268,2687,41,,
1269,7483,50,,
1270,1627,48,,
1271,368,48,,
1272,9516,60,,
1273,5485,48,,
1274,2618,50,,
1275,4771,50,,
1276,6108,48,,
1277,6208,58,,
1278,6194,59,,
1279,2599,42,,
1280,9510,48,,
1281,3369,48,,
1282,5445,58,,
1283,715,62,,
1284,1372,59,,
1285,4719,50,,
1286,7268,50,,
1287,998,48,,
1288,9507,60,1,
1289,6601,48,,
1290,6327,48,,
1291,1111,38,,
1292,1733,59,,
1293,6209,50,,
1294,7034,54,,
1295,9498,50,,
1296,9495,54,,
1297,1238,48,,
1298,6632,58,,
1299,5356,48,,
1300,9496,50,,
1301,7350,59,,
1302,1250,48,,
1303,3690,42,,
1304,7489,50,,
1305,1283,50,,
1306,658,62,,
1307,4881,42,,
1308,2991,28,1,
1309,7026,59,,
1310,3434,48,,
1311,5916,50,,
1312,4802,50,,
1313,5749,58,,
1314,3332,48,,
1315,5915,48,,
1316,9489,50,,
1317,9488,61,1,
1318,7164,62,,
1319,9486,48,,
1320,3606,59,,
1321,2947,48,,
1322,2083,59,,
1323,7073,58,,
1324,2932,60,,
1325,1214,50,,
1326,3671,48,,
1327,1069,62,,
1328,9474,58,1,
1329,4259,48,,
1330,1366,54,1,
1331,9472,48,,
1332,4836,48,,
1333,5910,48,,
1334,6614,48,,
1335,4052,33,,
1336,1119,48,,
1337,1979,50,,
1338,770,61,,
1339,1170,59,,
1340,3101,48,,
1341,1115,62,,
1342,2631,48,,
1343,2833,32,,
1344,4531,42,,
1345,6542,48,,
1346,1673,33,,
1347,1657,48,,
1348,6935,50,,
1349,4965,60,,
1350,1157,62,,
1351,1543,48,,
1352,3709,59,,
1353,5434,50,,
1354,3528,50,,
1355,1731,48,,
1356,850,62,,
1357,9426,48,,
1358,6312,59,1,
1359,6231,57,1,
1360,9423,48,,
1361,7173,54,1,
1362,1395,48,,
1363,3591,48,,
1364,4056,50,,
1365,9420,48,,
1366,4680,59,,
1367,1429,48,,
1368,5675,42,,
1369,9418,50,,
1370,6867,59,,
1371,4245,58,,
1372,5716,41,1,
1373,1805,33,,
1374,3771,33,,
1375,1740,50,,
1376,6455,48,,
1377,6395,48,,
1378,7366,54,,
1379,1708,50,,
1380,9415,50,,
1381,9414,50,,
1382,3898,48,,
1383,1404,48,,
1384,9413,48,,
1385,2909,31,,
1386,4141,58,,
1387,449,61,,
1388,9411,50,,
1389,6538,48,,
1390,4339,42,,
1391,4679,56,,
1392,2184,47,1,
1393,9407,50,,
1394,6099,58,,
1395,9405,50,,
1396,9403,48,,
1397,2202,50,,
1398,9402,50,,
1399,1860,48,,
1400,1082,62,,
1401,7270,59,,
1402,822,62,,
1403,3884,59,,
1404,442,50,,
1405,7508,59,,
1406,9397,48,,
1407,3136,48,,
1408,478,48,,
1409,9393,60,,
1410,6790,59,,
1411,4315,54,1,
1412,2391,54,,
1413,5118,48,,
1414,9395,54,1,
1415,2894,48,,
1416,3129,50,,
1417,1713,61,1,
1418,9388,50,,
1419,9387,48,,
1420,906,12,1,
1421,3135,48,,
1422,6392,50,,
1423,1206,59,,
1424,3949,34,,
1425,162,30,,
1426,940,62,,
1427,9385,48,,
1428,116,4,1,
1429,3559,48,,
1430,746,62,,
1431,9381,48,,
1432,4439,46,,
1433,4482,48,,
1434,2621,48,,
1435,9380,50,,
1436,3510,50,,
1437,2336,48,,
1438,4098,48,,
1439,1311,58,,
1440,1379,54,,
1441,9348,51,,
1442,3339,48,,
1443,1557,50,,
1444,7503,48,,
1445,2708,48,,
1446,9372,54,,
1447,5802,48,,
1448,4145,48,,
1449,9231,59,,
1450,6098,59,,
1451,2439,48,,
1452,6823,48,,
1453,9359,58,,
1454,9355,60,,
1455,3120,50,,
1456,7487,59,,
1457,5276,50,,
1458,2971,60,,
1459,2864,50,,
1460,2020,48,,
1461,2469,27,1,
1462,6831,50,,
1463,799,62,,
1464,9156,51,,
1465,2435,54,,
1466,2106,30,,
1467,3703,38,1,
1468,3328,48,,
1469,9332,58,,
1470,3726,50,,
1471,7349,50,,
1472,5788,48,,
1473,1176,62,,
1474,7055,50,,
1475,547,5,1,
1476,1866,31,,
1477,4986,36,1,
1478,9222,59,,
1479,2075,23,1,
1480,9321,54,1,
1481,7235,50,,
1482,3781,58,,
1483,4425,50,,
1484,505,62,,
1485,400,54,,
1486,2967,48,,
1487,4551,48,,
1488,1572,48,,
1489,3187,48,,
1490,5197,50,,
1491,1815,33,,
1492,7088,48,,
1493,5066,54,,
1494,2870,50,,
1495,1760,48,,
1496,5563,48,,
1497,9316,54,,
1498,3677,50,,
1499,4603,42,,
1500,2023,48,,
1501,9302,50,,
1502,2726,59,,
1503,1494,48,,
1504,9317,48,,
1505,4292,48,,
1506,6633,48,,
1507,2886,48,,
1508,5904,42,1,
1509,3024,50,,
1510,9315,53,,
1511,5547,50,,
1512,2912,50,,
1513,4706,48,,
1514,9314,50,,
1515,9313,48,,
1516,1523,48,,
1517,1867,50,,
1518,9312,58,,
1519,3168,48,,
1520,500,48,,
1521,2244,24,1,
1522,9228,51,1,
1523,9310,48,,
1524,1182,13,1,
1525,9309,58,,
1526,562,56,,
1527,552,48,,
1528,6053,54,,
1529,2473,27,1,
1530,9308,60,,
1531,1158,48,,
1532,1319,50,,
1533,2713,48,,
1534,5891,48,,
1535,9307,48,,
1536,354,41,,
1537,9306,50,,
1538,3237,48,,
1539,901,62,,
1540,6709,48,,
1541,2626,58,,
1542,4644,48,,
1543,6572,48,,
1544,9305,48,,
1545,7295,48,,
1546,9304,58,,
1547,7425,58,,
1548,9311,54,,
1549,4480,42,,
1550,2208,48,,
1551,6385,48,,
1552,9296,48,,
1553,6685,48,,
1554,2784,59,,
1555,128,48,,
1556,1402,48,,
1557,2606,33,,
1558,754,62,,
1559,5172,50,,
1560,2,62,,
1561,9286,50,,
1562,4131,46,,
1563,7101,50,,
1564,9285,58,,
1565,9239,59,,
1566,6470,48,,
1567,9219,59,,
1568,9284,48,,
1569,7033,62,,
1570,5530,50,,
1571,3179,48,,
1572,4711,48,,
1573,3825,50,,
1574,7014,60,1,
1575,3382,48,,
1576,5809,48,,
1577,5232,59,,
1578,3498,50,,
1579,847,42,,
1580,4735,42,,
1581,4060,59,,
1582,6330,50,,
1583,6506,48,,
1584,1784,33,,
1585,5936,42,,
1586,563,48,,
1587,1960,48,,
1588,2805,54,,
1589,857,48,,
1590,9282,58,,
1591,4590,54,,
1592,4370,48,,
1593,9333,59,,
1594,9324,59,,
1595,571,7,1,
1596,1169,62,,
1597,3170,48,,
1598,6743,50,,
1599,1414,48,,
1600,9281,48,,
1601,2141,48,,
1602,5341,42,,
1603,36,42,,
1604,565,48,,
1605,4646,42,,
1606,7209,59,,
1607,2656,54,,
1608,4027,48,,
1609,2228,54,,
1610,9280,48,,
1611,4016,48,,
1612,9279,48,,
1613,4840,54,,
1614,9278,48,,
1615,844,62,,
1616,1709,54,,
1617,9277,50,,
1618,2118,55,,
1619,9276,48,,
1620,1836,48,,
1621,9275,48,,
1622,6540,48,,
1623,2412,44,1,
1624,5865,42,,
1625,2781,41,,
1626,1807,58,,
1627,578,54,,
1628,4554,48,,
1629,1686,50,,
1630,6499,48,,
1631,2814,42,,
1632,9260,50,,
1633,6357,59,,
1634,7257,50,,
1635,9259,48,,
1636,9261,54,,
1637,9258,50,,
1638,3335,42,,
1639,6000,42,,
1640,1680,48,,
1641,9256,49,1,
1642,3493,48,,
1643,9216,48,,
1644,9215,48,,
1645,5857,59,,
1646,2440,58,,
1647,6562,48,,
1648,514,62,,
1649,1909,19,,
1650,3230,48,,
1651,574,8,,
1652,825,11,1,
1653,6637,48,,
1655,9212,50,,
1656,2804,38,,
1657,1896,33,,
1658,2401,38,,
1659,327,48,,
1660,3255,59,,
1661,6778,58,,
1662,1088,54,,
1663,9210,60,,
1664,1766,54,,
1665,9209,48,,
1666,9207,48,,
1667,6711,45,,
1668,7300,58,,
1669,1725,48,,
1670,4550,48,,
1671,1443,48,,
1672,6485,48,,
1673,6461,48,,
1674,9198,52,1,
1675,2558,54,,
1676,2863,54,,
1677,6794,50,,
1678,6803,62,,
1679,6158,48,,
1680,1959,48,,
1681,1719,59,,
1682,5803,50,,
1683,9186,46,1,
1684,195,48,,
1685,2073,54,,
1686,1556,59,,
1687,1284,14,1,
1688,3723,50,,
1689,9190,50,,
1690,7403,48,,
1691,4962,42,,
1692,1406,48,,
1693,564,48,,
1694,6758,44,1,1
1695,9180,50,,
1696,1792,48,,
1697,9176,54,,
1698,6876,60,,
1699,9175,58,,
1700,9174,54,,
1701,6285,50,,
1702,9173,48,,
1703,5616,48,,
1704,2481,50,,
1705,3980,48,,
1706,1718,59,,
1707,9172,58,,
1708,1028,59,,
1709,5880,50,,
1710,1046,48,,
1711,4483,48,,
1712,660,62,,
1713,9168,54,,
1714,2530,33,,
1715,3652,48,,
1716,4674,58,,
1717,6678,48,,
1718,4187,48,,
1719,7448,59,,
1720,529,48,,
1721,5121,59,,
1722,3831,48,,
1723,409,48,,
1724,1870,48,,
1725,5325,48,,
1726,1822,48,,
1727,2431,48,,
1728,6754,58,,
1729,6484,48,,
1730,3632,48,,
1731,3488,33,,
1732,614,48,,
1733,9132,48,,
1734,5705,50,,
1735,5629,48,,
1736,9130,50,,
1737,2879,50,,
1738,366,48,,
1739,2756,31,,
1740,2564,33,,
1741,2099,42,,
1742,6742,59,,
1743,7413,48,,
1744,4313,50,,
1745,5428,59,,
1746,473,62,,
1747,4017,58,,
1748,637,59,,
1749,7230,54,,
1750,6315,50,,
1751,1786,58,,
1752,2827,48,,
1753,9126,50,,
1754,1500,48,,
1755,6031,59,,
1756,1329,50,,
1757,2108,59,,
1758,9125,60,,
1759,1461,48,,
1760,4403,48,,
1761,2517,38,,
1762,859,48,,
1763,9120,48,,
1764,1846,48,,
1765,9119,50,1,
1766,5723,50,,
1767,4020,54,,
1768,1511,48,,
1769,4694,50,,
1770,8929,51,,
1771,9105,50,,
1772,1969,48,,
1773,5906,48,,
1774,700,62,,
1775,6836,50,,
1776,5689,50,,
1777,6076,50,,
1778,709,54,,
1779,4647,59,,
1780,9103,50,,
1781,5107,50,,
1782,4887,50,,
1783,6593,58,,
1784,126,50,,
1785,5051,50,,
1786,9102,50,,
1787,1518,48,,
1788,7494,48,,
1789,5455,50,,
1790,1871,48,,
1791,4862,50,,
1792,3858,58,,
1793,1410,48,,
1794,7059,50,,
1795,5523,48,,
1796,972,62,,
1797,1575,48,,
1798,9097,56,,
1799,9096,50,,
1800,6041,59,,
1801,5656,50,1,
1802,9086,54,,
1803,1558,42,,
1804,62,62,,
1805,2414,62,1,
1806,3563,50,,
1807,927,50,,
1808,4064,50,,
1809,4049,33,,
1810,3334,48,,
1811,1499,48,,
1812,8977,62,,
1813,86,30,,
1814,2551,50,,
1815,3774,48,,
1816,4200,48,,
1817,5777,59,,
1818,5625,50,,
1819,5544,58,,
1820,4864,48,,
1821,3092,48,,
1822,6311,59,,
1823,7326,59,,
1824,7194,50,,
1825,85,58,,
1826,1582,48,,
1827,3213,62,,
1828,3463,54,,
1829,5552,59,,
1830,9081,50,,
1831,150,48,,
1832,290,62,,
1833,1843,48,,
1834,4901,42,,
1835,1426,48,,
1836,4178,50,,
1837,2488,50,,
1838,6059,50,,
1839,2749,48,,
1840,9080,58,,
1841,9049,62,,
1842,8964,59,,
1843,3706,31,1,
1844,6212,48,,
1845,1837,50,,
1846,298,62,,
1847,3002,33,,
1848,5935,54,,
1849,836,62,,
1850,9077,48,,
1851,9076,50,,
1852,2424,48,,
1853,5159,42,,
1854,554,6,1,
1855,2320,55,,
1856,1242,50,,
1857,3669,48,,
1858,4700,48,,
1859,2747,54,1,
1860,1663,54,,
1861,2834,32,,
1862,2039,22,1,
1863,9079,50,,
1864,1103,54,,
1865,210,48,,
1866,1291,61,,
1867,6191,58,,
1868,2000,50,,
1869,3843,54,,
1870,1554,58,,
1871,2462,54,,
1872,2096,54,,
1873,9059,59,,
1874,9067,50,,
1875,5009,54,,
1876,9066,50,,
1877,670,61,,
1878,6990,59,,
1879,2013,48,,
1880,1534,48,,
1881,1936,50,,
1882,1464,48,,
1883,1559,50,,
1884,4948,50,,
1885,9047,50,,
1886,2734,48,,
1887,1489,48,,
1888,7424,59,,
1889,9044,50,,
1890,189,62,,
1891,9043,48,,
1892,1454,48,,
1893,9042,48,,
1894,9041,54,,
1895,1039,50,,
1896,1527,48,,
1897,595,9,1,
1898,9007,59,,
1899,6063,58,,
1900,2603,50,,
1901,747,50,,
1902,9062,59,,
1903,2470,27,1,
1904,1757,18,1,
1905,3336,31,,
1906,1734,50,,
1907,4481,60,1,
1908,6276,50,,
1909,5345,54,,
1910,9039,58,,
1911,4972,50,,
1912,9038,60,1,
1913,4526,48,,
1914,161,48,,
1915,5425,59,,
1916,9037,48,,
1917,113,42,,
1918,6681,48,,
1919,3953,48,,
1920,6752,58,,
1921,5691,50,,
1922,9034,50,,
1923,7499,60,,
1924,9035,54,,
1925,6799,59,,
1926,2549,42,,
1927,2741,42,,
1928,3431,42,,
1929,2952,48,,
1930,9028,50,,
1931,3370,48,,
1932,6299,50,,
1933,9027,50,,
1934,2843,54,,
1935,5177,48,,
1936,4254,48,,
1937,9026,48,,
1938,9024,50,,
1939,2506,48,,
1940,9021,50,,
1941,9020,50,,
1942,1541,48,,
1943,6411,58,,
1944,9019,54,,
1945,1420,48,,
1946,9018,50,,
1947,1422,48,,
1948,7056,54,,
1949,5120,48,,
1950,1700,48,,
1951,5759,50,,
1952,1486,48,,
1953,1510,61,,
1954,3770,50,,
1955,1067,61,,
1956,1601,48,,
1957,3464,60,,
1958,9004,58,,
1959,6260,42,1,
1960,5157,42,,
1961,344,3,1,
1962,2765,50,,
1963,7293,50,,
1964,2287,42,,
1965,8997,58,,
1966,9003,50,,
1967,6040,60,1,
1968,2474,27,,
1969,1727,61,1,
1970,3600,59,,
1971,9002,48,,
1972,772,60,,
1973,5545,58,,
1974,9764,54,,
1975,8992,56,,
1976,1018,59,,
1977,7495,59,,
1978,4225,50,,
1979,4184,48,,
1980,5459,48,,
1981,4527,50,,
1982,6084,48,,
1983,2803,48,,
1984,8999,48,,
1985,3598,48,,
1986,657,48,,
1987,3031,33,,
1988,8998,53,,
1989,5969,48,,
1990,6419,48,,
1991,3788,48,,
1992,7343,54,,
1993,1213,50,,
1994,9051,50,,
1995,8996,50,,
1996,4183,48,,
1997,2592,50,,
1998,6551,54,,
1999,1438,48,,
2000,4409,59,,
2001,8994,48,,
2002,8995,54,,
2003,8993,50,,
2004,831,62,,
2005,3564,48,,
2006,2037,48,,
2007,4741,48,,
2008,4338,48,,
2009,6517,48,,
2010,748,50,,
2011,8984,50,,
2012,6408,48,,
2013,1810,48,,
2014,426,59,,
2015,3952,59,,
2016,8968,56,,
2017,4477,48,,
2018,2226,50,,
2019,9005,50,,
2020,7433,50,,
2021,2055,48,,
2022,6649,54,1,
2023,4525,50,,
2024,6067,48,,
2025,6684,59,,
2026,531,62,,
2027,8981,59,,
2028,7496,48,,
2029,3822,48,,
2030,1326,48,,
2031,8962,48,,
2032,3860,48,,
2033,3666,48,,
2034,4564,48,,
2035,5355,48,,
2036,5489,50,,
2037,8958,52,,
2038,2750,48,,
2039,8955,50,,
2040,1459,48,,
2041,8957,48,,
2042,7037,48,,
2043,1197,50,,
2044,6516,48,,
2045,3202,58,,
2046,2877,48,,
2047,4993,54,,
2048,3388,46,,
2049,5122,48,,
2050,2301,42,,
2051,4451,48,,
2052,5131,42,,
2053,8954,54,,
2054,1788,54,,
2055,8953,48,,
2056,8952,54,,
2057,3844,50,,
2058,6568,48,,
2059,5482,58,,
2060,1434,48,,
2061,4033,48,,
2062,2002,48,,
2063,2743,50,,
2064,6259,42,,
2065,1751,48,,
2066,8927,56,,
2067,4545,48,,
2068,695,54,,
2069,2795,42,,
2070,5289,50,,
2071,2264,42,,
2072,4675,58,,
2073,8899,60,,
2074,4571,42,,
2075,4952,58,,
2076,5119,59,,
2077,4516,50,,
2078,4240,48,,
2079,7072,48,,
2080,3238,48,,
2081,8914,48,,
2082,7032,48,,
2083,8913,50,,
2084,592,59,,
2085,8909,48,,
2086,8904,50,,
2087,8902,48,,
2088,4071,48,,
2089,6097,58,,
2090,1991,48,,
2091,5603,39,1,
2092,4708,59,,
2093,7430,59,,
2094,1303,54,,
2095,3752,50,,
2096,555,6,,
2097,342,59,,
2098,2871,33,,
2099,3985,61,1,
2100,1931,54,,
2101,435,61,,
2102,4142,59,,
2103,6661,50,,
2104,5550,48,,
2105,3385,42,,
2106,7181,48,,
2107,7502,50,,
2108,4289,48,,
2109,4950,48,,
2110,1202,48,,
2111,8896,50,,
2112,7409,62,,
2113,3014,29,1,
2114,973,62,,
2115,6615,48,,
2116,7490,59,,
2117,1198,50,,
2118,6457,48,,
2119,1711,48,,
2120,8894,50,,
2121,8893,50,,
2122,445,62,,
2123,6188,48,,
2124,8891,48,,
2125,2526,50,,
2126,166,48,,
2127,403,61,,
2128,2084,46,,
2129,6353,51,,
2130,4707,59,,
2131,6314,50,,
2132,1393,48,,
2133,2692,31,,
2134,3647,48,,
2135,1542,48,,
2136,2710,48,,
2137,4143,48,,
2138,2510,50,,
2139,1497,48,,
2140,6874,50,,
2141,8887,54,,
2142,8884,48,,
2143,347,3,,
2144,2668,48,,
2145,3888,50,,
2146,540,61,,
2147,4585,50,,
2148,6640,58,,
2149,2472,27,1,
2150,735,48,,
2151,7354,58,,
2152,1744,56,,
2153,6426,54,,
2154,5113,48,,
2155,13,46,,
2156,6991,59,,
2157,8786,59,,
2158,8873,50,,
2159,987,62,,
2160,402,42,,
2161,3984,61,1,
2162,8868,50,,
2163,6482,48,,
2164,542,62,,
2165,2791,48,,
2166,3095,50,,
2167,5999,48,,
2168,8799,59,,
2169,6561,48,,
2170,8860,48,,
2171,5965,42,,
2172,732,62,,
2173,8858,58,,
2174,6223,48,,
2175,8856,48,,
2176,7422,50,1,
2177,152,58,,
2178,5609,48,,
2179,3151,54,,
2180,235,54,,
2181,1433,48,,
2182,3140,48,,
2183,8854,48,,
2184,8853,50,,
2185,8852,48,,
2186,8851,50,,
2187,2087,50,,
2188,2511,42,1,
2189,7087,48,,
2190,3441,48,,
2191,2269,28,,
2192,3696,48,,
2193,7344,48,,
2194,6856,48,,
2195,8838,48,,
2196,3432,54,,
2197,2569,48,,
2198,1045,54,,
2199,8827,60,1,
2200,2199,59,,
2201,6085,50,,
2202,343,3,1,
2203,5744,48,,
2204,8837,48,,
2205,6905,59,,
2206,1331,15,1,
2207,7690,50,,
2208,1874,33,,
2209,6195,50,,
2210,646,62,,
2211,1597,48,,
2212,436,56,,
2213,2728,58,,
2214,3015,50,,
2215,421,54,,
2216,3906,48,,
2217,8832,58,,
2218,1363,50,,
2219,8831,50,,
2220,173,62,,
2221,2895,48,,
2222,4383,59,,
2223,7104,59,,
2224,8800,59,,
2225,2615,48,,
2226,4107,42,,
2227,8826,54,,
2228,7266,50,,
2229,5832,50,,
2230,1535,48,,
2231,8825,58,,
2232,3311,48,,
2233,2413,62,1,
2234,2902,38,,
2235,1083,62,,
2236,5688,50,,
2237,5683,50,,
2238,5872,58,,
2239,4727,50,,
2240,5657,50,,
2241,8802,59,1,
2242,2688,58,,
2243,8824,50,,
2244,7486,59,,
2245,8823,48,,
2246,5048,50,,
2247,8822,50,,
2248,8821,50,,
2249,5171,42,,
2250,8774,53,,
2251,1880,42,,
2252,2586,59,,
2253,9728,48,,
2254,7296,48,,
2255,4523,60,1,
2256,5782,58,,
2257,1961,58,,
2258,722,62,,
2259,8811,48,,
2260,8810,50,,
2261,4608,48,,
2262,5905,48,,
2263,3149,50,,
2264,2620,54,,
2265,3374,33,,
2266,3301,50,,
2267,1498,48,,
2268,320,58,,
2269,607,62,,
2270,1581,48,,
2271,6589,48,,
2272,8793,48,,
2273,5045,50,,
2274,7063,54,,
2275,4951,58,,
2276,3274,50,,
2277,1496,48,,
2278,8791,50,,
2279,7395,60,1,
2280,2430,48,,
2281,1755,18,1,
2282,2825,61,1,
2283,1416,48,,
2284,2968,33,,
2285,3046,48,,
2286,2101,48,,
2287,1927,42,,
2288,4443,48,,
2289,1705,48,,
2290,643,30,,
2291,2509,50,,
2292,374,48,,
2293,8783,50,,
2294,4022,48,,
2295,1290,61,,
2296,8782,48,,
2297,4005,48,,
2298,8780,48,,
2299,5856,59,,
2300,6466,48,,
2301,843,48,,
2302,4565,50,,
2303,3222,50,,
2304,1579,48,,
2305,106,33,,
2306,1571,59,,
2307,3147,50,,
2308,1785,42,,
2309,5767,58,,
2310,1094,58,,
2311,6184,59,,
2312,3826,59,,
2313,6145,59,,
2314,3628,59,,
2315,1353,60,,
2316,5878,60,,
2317,8768,50,,
2318,8767,54,,
2319,4618,50,,
2320,151,58,,
2321,1298,59,,
2322,818,62,,
2323,4953,48,,
2324,3731,59,,
2325,1423,48,,
2326,7120,48,,
2327,5810,48,,
2328,4752,50,,
2329,2299,50,,
2330,1538,48,,
2331,6798,59,,
2332,2789,59,,
2333,1431,48,,
2334,4384,50,,
2335,1540,48,,
2336,3712,59,,
2337,1739,60,,
2338,3501,59,,
2339,1040,50,,
2340,5142,48,,
2341,2373,50,,
2342,5474,50,,
2343,6493,48,,
2344,8754,50,,
2345,1286,62,,
2346,1856,33,,
2347,4458,48,,
2348,1358,48,,
2349,4368,50,,
2350,4162,50,,
2351,6174,50,,
2352,4000,48,,
2353,8752,48,,
2354,5584,60,1,
2355,5188,50,,
2356,6416,48,,
2357,915,62,,
2358,8751,48,,
2359,6549,48,,
2360,2419,48,,
2361,209,50,,
2362,2010,21,1,
2363,5510,48,,
2364,137,48,,
2365,6468,48,,
2366,4272,48,,
2367,141,62,,
2368,2273,58,,
2369,2389,45,,
2370,5324,48,,
2371,107,48,,
2372,6476,48,,
2373,2898,48,,
2374,1413,48,,
2375,3347,42,,
2376,2420,48,,
2377,4367,48,,
2378,4282,50,,
2379,1344,48,,
2380,427,62,,
2381,111,62,,
2382,3994,48,,
2383,8746,48,,
2384,1584,48,,
2385,1692,48,,
2386,6573,48,,
2387,2876,58,,
2388,693,62,,
2389,8745,50,,
2390,525,48,,
2391,6541,48,,
2392,3787,50,,
2393,6060,48,,
2394,2045,54,,
2395,3556,48,,
2396,3219,59,,
2397,3536,48,,
2398,8741,48,,
2399,8741,48,1,
2400,2652,48,,
2401,7129,62,1,
2402,6795,48,,
2403,2117,33,,
2404,3261,59,,
2405,5010,59,,
2406,3673,48,,
2407,3904,48,,
2408,1910,20,1,
2409,3756,48,,
2410,1573,48,,
2411,978,62,,
2412,6449,48,,
2413,2111,33,,
2414,1421,48,,
2415,3411,48,,
2416,2121,33,,
2417,8728,48,,
2418,5926,48,,
2419,8725,50,,
2420,8724,50,,
2421,108,62,,
2422,4987,36,1,
2423,2742,48,,
2424,4667,62,,
2425,8693,59,,
2426,7160,58,,
2427,8722,48,,
2428,3157,48,,
2429,764,48,,
2430,4478,60,1,
2431,7102,59,,
2432,8721,50,,
2433,2678,54,,
2434,2251,50,1,
2435,8720,48,,
2436,6677,43,1,
2437,4176,32,1,
2438,375,48,,
2439,8719,48,,
2440,3348,42,,
2441,7325,50,,
2442,8199,48,,
2443,5580,62,,
2444,1490,48,,
2445,4014,48,,
2446,3665,50,,
2447,8708,50,,
2448,1376,61,,
2449,4697,50,,
2450,1442,48,,
2451,307,62,,
2452,109,61,,
2453,2917,48,,
2454,339,62,,
2455,8700,60,,
2456,43,58,,
2457,8684,50,,
2458,8683,58,,
2459,8680,50,,
2460,2521,54,,
2461,406,62,,
2462,8545,59,,
2463,250,50,,
2464,2540,48,,
2465,1495,48,,
2466,8676,48,,
2467,1821,57,1,
2468,6975,59,,
2469,8685,59,,
2470,8678,59,,
2471,3226,50,,
2472,8675,56,,
2473,8674,58,,
2474,4175,48,,
2475,8628,59,,
2476,8673,58,,
2477,1091,59,,
2478,2576,41,,
2479,6675,48,,
2480,6277,50,,
2481,4028,59,,
2482,3675,42,,
2483,273,50,,
2484,336,58,,
2485,6196,59,,
2486,786,58,,
2487,1515,48,,
2488,171,62,,
2489,1255,48,,
2490,254,55,,
2491,7410,48,,
2492,4960,42,,
2493,2609,59,,
2494,6642,48,,
2495,6793,50,,
2496,4684,50,,
2497,8669,48,,
2498,2790,33,,
2499,8667,50,,
2500,3997,42,,
2501,4757,58,,
2502,576,62,,
2503,372,48,,
2504,3212,56,,
2505,6336,59,,
2506,8663,48,,
2507,5729,50,,
2508,8662,50,,
2509,8661,50,,
2510,5025,42,,
2511,8660,48,,
2512,5353,48,,
2513,8659,58,,
2514,2056,58,,
2515,5622,50,,
2516,5076,50,,
2517,3407,54,,
2518,7458,48,,
2519,2867,42,1,
2520,482,62,,
2521,8658,50,,
2522,8657,48,,
2523,2008,58,,
2524,2931,48,,
2525,8655,50,,
2526,8654,50,,
2527,6934,59,,
2528,8652,54,,
2529,8647,62,,
2530,742,48,,
2531,8653,48,,
2532,4932,48,,
2533,1487,48,,
2534,8646,50,,
2535,3271,48,,
2536,5612,48,,
2537,8639,61,,
2538,8527,59,,
2539,608,48,,
2540,8637,48,,
2541,8636,54,,
2542,1769,60,,
2543,699,57,1,
2544,3736,48,,
2545,6093,50,,
2546,4346,49,,
2547,3137,48,,
2548,4817,48,,
2549,694,62,,
2550,4937,50,,
2551,8541,59,,
2552,8624,48,,
2553,142,48,,
2554,3616,58,,
2555,922,50,,
2556,4682,59,,
2557,4623,42,,
2558,7384,48,,
2559,724,48,,
2560,723,48,,
2561,4508,58,,
2562,5136,42,,
2563,7307,48,,
2564,1533,48,,
2565,6452,48,,
2566,5001,42,,
2567,140,50,,
2568,8614,50,,
2569,7313,48,,
2570,1337,58,,
2571,2437,54,,
2572,3143,48,,
2573,7514,59,,
2574,2368,31,,
2575,8618,48,,
2576,7061,50,,
2577,3509,58,,
2578,4450,48,,
2579,345,3,,
2580,6215,48,,
2581,1819,54,,
2582,5606,40,,
2583,29,61,,
2584,986,54,,
2585,2801,50,,
2586,8609,48,,
2587,8608,48,,
2588,2487,59,,
2589,5524,50,,
2590,7210,60,,
2591,5435,50,,
2592,714,62,,
2593,8595,48,,
2594,6599,48,,
2595,8594,54,,
2596,8590,48,,
2597,5911,59,,
2598,4311,48,,
2599,8589,60,,
2600,6001,48,,
2601,3983,45,,
2602,5919,48,,
2603,6951,48,,
2604,8586,48,,
2605,5449,50,,
2606,2522,54,,
2607,8686,59,,
2608,5217,59,,
2609,8584,50,,
2610,5091,48,,
2611,2697,50,,
2612,8699,59,,
2613,1387,62,,
2614,7324,50,,
2615,8568,54,,
2616,727,10,,
2617,4934,54,,
2618,5918,50,,
2619,6214,42,,
2620,5852,58,,
2621,7308,48,,
2622,334,62,,
2623,4087,42,,
2624,916,62,,
2625,4111,42,,
2626,4108,42,,
2627,4110,42,,
2628,4109,42,,
2629,1941,48,,
2630,6938,50,,
2631,5439,50,,
2632,7046,50,,
2633,1093,50,,
2634,7060,48,,
2635,3925,59,,
2636,2422,48,,
2637,1330,48,,
2638,2829,31,,
2639,1532,48,,
2640,4236,33,,
2641,7357,50,,
2642,6781,45,1,
2643,532,59,,
2644,566,48,,
2645,1432,48,,
2646,8557,54,,
2647,8556,54,,
2648,1457,48,,
2649,7364,59,,
2650,4788,50,,
2651,8555,48,,
2652,6326,59,,
2653,8553,50,,
2654,4989,59,,
2655,8552,54,,
2656,8569,48,,
2657,8531,50,,
2658,2078,40,1,
2659,2782,48,,
2660,8522,48,,
2661,4190,48,,
2662,8521,48,,
2663,6464,48,,
2664,553,50,,
2665,7071,62,,
2666,1401,48,,
2667,1318,33,,
2668,5549,42,,
2669,8514,50,,
2670,8512,50,,
2671,5249,59,,
2672,3413,33,,
2673,2144,54,,
2674,6894,48,,
2675,174,55,,
2676,8510,50,,
2677,4639,48,,
2678,797,48,,
2679,1196,50,,
2680,2973,48,,
2681,1391,54,,
2682,5956,42,,
2683,8083,48,,
2684,2832,48,,
2685,3987,61,1,
2686,1921,56,,
2687,6948,59,,
2688,874,33,,
2689,5815,50,,
2690,883,31,,
2691,6556,50,,
2692,7372,54,,
2693,821,33,,
2694,6877,58,,
2695,1254,48,,
2696,4275,48,,
2697,8504,50,,
2698,8503,50,,
2699,830,48,,
2700,8502,48,,
2701,5199,48,,
2702,8501,48,,
2703,1544,48,,
2704,7358,48,,
2705,4345,59,,
2706,9934,48,,
2707,7491,50,,
2708,1210,50,,
2709,4672,42,,
2710,2445,48,,
2711,6307,62,,
2712,1546,48,,
2713,7346,54,,
2714,292,59,,
2715,1589,48,,
2716,4077,42,,
2717,3208,50,,
2718,2337,30,,
2719,2253,28,,
2720,5418,62,,
2721,8497,59,,
2722,6557,59,,
2723,1753,48,,
2724,4223,33,,
2725,2779,59,,
2726,3079,48,,
2727,3040,59,,
2728,6977,58,,
2729,6317,48,,
2730,1440,48,,
2731,1693,54,,
2732,6554,59,,
2733,1245,33,,
2734,5333,50,,
2735,3330,50,,
2736,4560,50,,
2737,3704,38,,
2738,4789,50,,
2739,3412,48,,
2740,8487,50,,
2741,6269,48,,
2742,296,48,,
2743,6566,48,,
2744,2822,62,1,
2745,5825,42,,
2746,6520,48,,
2747,4928,48,,
2748,6524,48,,
2749,4645,42,,
2750,8,48,,
2751,8459,48,,
2752,6501,48,,
2753,3615,50,,
2754,6450,48,,
2755,734,54,,
2756,5492,48,,
2757,8457,50,,
2758,756,50,,
2759,6703,48,,
2760,4558,48,,
2761,7079,48,,
2762,6189,56,,
2763,5842,50,,
2764,869,48,,
2765,872,58,,
2766,489,9,,
2767,5874,50,,
2768,845,62,,
2769,2385,33,,
2770,2722,50,,
2771,2572,54,1,
2772,8324,62,,
2773,5478,38,1,
2774,2074,23,,
2775,4147,42,,
2776,8442,50,,
2777,5847,56,,
2778,4168,59,,
2779,2044,50,,
2780,7233,48,,
2781,4624,61,,
2782,8441,56,,
2783,1061,62,,
2784,914,61,,
2785,702,48,,
2786,7337,58,,
2787,950,48,,
2788,4882,48,,
2789,8347,48,,
2790,8346,48,,
2791,7247,48,,
2792,8345,48,,
2793,5964,42,,
2794,2740,62,,
2795,8806,48,,
2796,3371,59,,
2797,5079,50,,
2798,6304,42,1,
2799,2860,50,,
2800,8344,48,,
2801,3558,48,,
2802,9522,48,,
2803,3773,59,,
2804,7444,48,,
2805,6802,48,,
2806,5707,48,,
2807,4676,50,,
2808,8339,48,,
2809,941,62,,
2810,1215,33,,
2811,5881,50,,
2812,5799,48,,
2813,8330,50,,
2814,5573,50,,
2815,8329,58,,
2816,6937,48,,
2817,4786,48,,
2818,8328,48,,
2819,1181,13,1,
2820,3017,50,,
2821,5019,58,,
2822,1092,62,1,
2823,6021,42,,
2824,1561,54,,
2825,4804,50,,
2826,6748,48,,
2827,6478,48,,
2828,8303,48,,
2829,1449,48,,
2830,1460,48,,
2831,8302,50,,
2832,7305,48,,
2833,5,48,,
2834,206,58,,
2835,2633,48,,
2836,4167,48,,
2837,1658,33,,
2838,3954,48,,
2839,5709,48,,
2840,1905,33,,
2841,8294,50,,
2842,763,54,,
2843,811,48,,
2844,5506,54,,
2845,480,62,,
2846,1529,48,,
2847,4076,59,,
2848,2519,58,,
2849,7461,50,,
2850,3184,59,,
2851,112,42,,
2852,8258,59,,
2853,1446,48,,
2854,8293,54,,
2855,2183,59,,
2856,8173,59,,
2857,6377,59,,
2858,2482,46,,
2859,7212,59,,
2860,7085,48,,
2861,203,59,,
2862,4261,50,,
2863,504,38,,
2864,6379,48,,
2865,8288,50,,
2866,8287,48,,
2867,5016,50,,
2868,8286,54,,
2869,5819,50,,
2870,8284,50,,
2871,4671,50,,
2872,4502,50,,
2873,4501,50,,
2874,8282,48,,
2875,3297,48,,
2876,8274,48,,
2877,363,62,,
2878,4244,48,,
2879,1609,54,,
2880,4136,58,,
2881,8272,54,,
2882,3034,54,,
2883,4220,48,,
2884,7316,59,,
2885,612,50,,
2886,3043,54,,
2887,6400,48,,
2888,6496,48,,
2889,6302,50,,
2890,6460,48,,
2891,5088,54,,
2892,5807,59,,
2893,3538,54,,
2894,4391,58,,
2895,1590,48,,
2896,8254,48,,
2897,6535,54,,
2898,1517,48,,
2899,860,62,,
2900,4897,42,,
2901,8253,50,,
2902,587,54,,
2903,6875,48,,
2904,8252,48,,
2905,3562,59,,
2906,2588,31,,
2907,6398,50,,
2908,8251,58,,
2909,303,8,,
2910,1555,48,,
2911,824,59,,
2912,8250,50,,
2913,5423,48,,
2914,8249,48,,
2915,3232,33,,
2916,1246,48,,
2917,8248,50,,
2918,1848,48,,
2919,7408,48,,
2920,6662,50,,
2921,2396,50,,
2922,5814,42,,
2923,3848,42,,
2924,6522,48,,
2925,2994,33,,
2926,3944,33,1,
2927,6453,48,,
2928,6381,48,,
2929,2491,59,,
2930,8207,48,,
2931,1152,48,,
2932,2218,50,,
2933,6318,50,,
2934,2162,58,,
2935,1790,33,,
2936,5710,50,,
2937,5354,48,,
2938,6467,48,,
2939,1382,42,,
2940,3167,54,1,
2941,5348,50,,
2942,8200,54,,
2943,3133,62,,
2944,6071,50,,
2945,873,62,,
2946,8193,54,,
2947,8172,59,,
2948,8192,54,,
2949,6560,48,,
2950,3894,50,,
2951,1660,17,1,
2952,4762,48,,
2953,1895,48,,
2954,2245,54,,
2955,1752,42,,
2956,494,33,,
2957,663,62,,
2958,1547,54,,
2959,3540,45,,
2960,3098,48,,
2961,8168,54,,
2962,2502,54,,
2963,1101,62,,
2964,2342,26,1,
2965,4026,50,,
2966,8161,60,,
2967,1742,59,,
2968,5605,40,,
2969,8160,48,,
2970,3566,29,,
2971,1593,48,,
2972,2423,48,,
2973,5845,48,,
2974,2961,33,,
2975,6465,48,,
2976,7081,48,,
2977,3425,33,,
2978,4399,48,,
2979,6495,48,,
2980,3148,50,,
2981,6600,48,,
2982,3805,50,,
2983,1412,48,,
2984,3796,33,,
2985,8150,48,,
2986,8147,50,,
2987,1845,48,,
2988,3403,50,,
2989,3597,48,,
2990,4818,48,,
2991,8143,48,,
2992,6154,48,,
2993,743,62,,
2994,5285,48,,
2995,1844,48,,
2996,942,62,,
2997,8142,48,,
2998,8141,50,,
2999,3153,48,,
3000,378,33,,
3001,1285,14,,
3002,8140,48,,
3003,3630,58,,
3004,8138,48,,
3005,2457,32,,
3006,2835,32,,
3007,2622,58,1,
3008,8137,48,,
3009,8135,50,,
3010,7309,48,,
3011,840,48,,
3012,6386,48,,
3013,549,62,,
3014,1183,13,1,
3015,4373,50,,
3016,7431,48,,
3017,1405,48,,
3018,6394,48,,
3019,8257,59,,
3020,572,7,,
3021,6207,58,,
3022,4739,59,,
3023,4740,59,,
3024,1793,31,,
3025,3393,59,,
3026,3273,56,,
3027,1643,42,,
3028,6270,50,,
3029,8123,50,,
3030,6477,48,,
3031,1898,48,,
3032,6933,48,,
3033,6255,59,,
3034,5169,48,,
3035,5849,48,,
3036,7158,58,,
3037,7920,59,,
3038,1173,54,,
3039,8105,54,,
3040,2303,33,,
3041,7470,59,,
3042,4793,60,,
3043,4969,48,,
3044,6911,56,,
3045,5837,54,,
3046,1417,48,,
3047,3088,59,,
3048,5164,42,,
3049,4246,48,,
3050,6564,48,,
3051,2154,60,,
3052,8098,58,,
3053,3150,50,,
3054,3607,59,,
3055,2581,59,1,
3056,1684,48,,
3057,8097,54,,
3058,841,48,,
3059,367,42,,
3060,4348,59,,
3061,214,31,,
3062,1470,33,,
3063,618,48,,
3064,2823,48,,
3065,8095,50,,
3066,2212,59,,
3067,424,59,,
3068,1938,59,,
3069,1251,48,,
3070,3584,59,,
3071,6472,48,,
3072,6380,48,,
3073,48,54,,
3074,5086,48,,
3075,8092,50,,
3076,521,48,,
3077,4361,59,,
3078,8091,50,,
3079,8090,48,,
3080,8089,48,,
3081,506,62,,
3082,6458,48,,
3083,8088,48,,
3084,3099,48,,
3085,1526,48,,
3086,2140,54,1,
3087,7928,59,,
3088,8081,48,,
3089,8080,48,,
3090,4154,50,,
3091,3655,48,,
3092,5879,42,,
3093,2296,48,,
3094,8077,54,,
3095,8076,50,,
3096,2792,60,,
3097,81,58,,
3098,4910,50,,
3099,7084,48,,
3100,3648,50,,
3101,1468,48,,
3102,5841,50,,
3103,5975,58,,
3104,231,58,,
3105,3390,59,,
3106,4202,48,,
3107,2415,48,,
3108,8072,48,,
3109,8071,60,,
3110,633,48,,
3111,3003,42,,
3112,5813,59,,
3113,609,62,,
3114,6471,48,,
3115,5585,50,,
3116,476,50,,
3117,8070,50,,
3118,7482,50,,
3119,2155,59,,
3120,3753,59,,
3121,8069,48,,
3122,233,58,,
3123,8066,48,,
3124,524,48,,
3125,1884,48,,
3126,2545,60,,
3127,8060,50,,
3128,5853,42,,
3129,975,21,,
3130,6009,48,,
3131,6364,34,1,1
3132,5479,38,,
3133,8036,50,,
3134,3684,48,,
3135,3462,48,,
3136,2926,41,,
3137,8034,50,,
3138,8033,61,1,
3139,4475,58,,
3140,5725,48,,
3141,4114,48,,
3142,2589,54,,
3143,8027,50,,
3144,3526,50,,
3145,1994,48,,
3146,2371,48,,
3147,3210,50,,
3148,8015,50,,
3149,4048,48,,
3150,912,61,1,
3151,1770,50,,
3152,8014,54,,
3153,539,48,,
3154,3530,59,,
3155,1140,48,,
3156,1591,48,,
3157,8011,56,,
3158,2271,28,,
3159,1458,48,,
3160,630,30,,
3161,6,50,,
3162,3802,50,,
3163,7512,50,,
3164,2139,56,,
3165,7197,50,,
3166,6056,48,,
3167,2227,54,,
3168,3100,58,,
3169,8008,50,,
3170,4923,59,,
3171,6078,59,,
3172,703,41,,
3173,8006,48,,
3174,7394,50,,
3175,8003,48,,
3176,4831,42,,
3177,5957,50,,
3178,3200,33,,
3179,4257,62,,
3180,3660,58,,
3181,4241,48,,
3182,95,62,,
3183,2333,48,,
3184,415,48,,
3185,7998,50,,
3186,6723,59,,
3187,2802,48,,
3188,6740,48,,
3189,5322,50,,
3190,7996,48,,
3191,7994,48,,
3192,2719,50,,
3193,7993,54,,
3194,7995,54,,
3195,1168,62,,
3196,3951,58,,
3197,7062,50,,
3198,6391,54,,
3199,5830,50,,
3200,3560,48,,
3201,4543,48,,
3202,346,3,1,
3203,3491,33,,
3204,7989,50,,
3205,6321,50,,
3206,3368,48,,
3207,3917,48,,
3208,6827,62,,
3209,3016,50,,
3210,3958,48,,
3211,1435,48,,
3212,1525,48,,
3213,625,48,,
3214,6373,59,,
3215,5237,59,,
3216,2783,62,,
3217,1539,48,,
3218,2745,31,,
3219,5083,48,,
3220,6219,58,,
3221,800,62,,
3222,64,62,,
3223,3803,48,,
3224,2709,50,,
3225,5697,48,,
3226,1287,48,,
3227,7982,50,,
3228,7264,58,,
3229,6129,50,,
3230,7981,58,,
3231,1913,50,,
3232,728,31,,
3233,7980,56,,
3234,1520,48,,
3235,323,8,,
3236,7978,50,,
3237,1146,62,,
3238,5426,48,,
3239,7974,48,,
3240,4219,50,,
3241,7973,50,,
3242,6544,50,,
3243,7971,54,,
3244,2608,31,,
3245,1452,48,,
3246,7969,54,,
3247,7492,48,,
3248,1933,50,,
3249,4360,59,,
3250,6840,48,,
3251,2645,59,,
3252,1394,54,,
3253,5475,50,,
3254,3451,50,,
3255,7966,50,,
3256,4140,50,,
3257,6303,42,,
3258,2113,48,,
3259,7965,54,1,
3260,7964,54,,
3261,4004,50,,
3262,7962,48,,
3263,5917,50,,
3264,7961,48,,
3265,6858,48,,
3266,7960,50,,
3267,6682,50,,
3268,3650,48,,
3269,7954,48,,
3270,452,62,,
3271,7953,48,,
3272,2924,48,,
3273,5704,50,,
3274,6488,48,,
3275,3763,48,,
3276,2838,32,,
3277,1447,48,,
3278,7935,48,,
3279,2649,31,,
3280,6567,48,,
3281,7254,59,,
3282,3364,48,,
3283,3091,60,,
3284,5898,48,,
3285,3895,58,,
3286,7934,58,,
3287,741,48,,
3288,933,62,,
3289,6125,46,,
3290,6822,48,,
3291,4584,59,,
3292,443,62,,
3293,1131,62,,
3294,3922,48,,
3295,1911,20,,
3296,3035,33,,
3297,229,62,,
3298,4099,48,,
3299,7919,48,,
3300,7918,54,,
3301,7916,48,,
3302,1332,15,,
3303,7915,58,,
3304,3708,59,,
3305,5239,48,,
3306,5460,54,,
3307,7913,60,,
3308,3333,48,,
3309,7250,48,,
3310,6283,58,,
3311,1424,48,,
3312,6032,60,,
3313,1794,42,,
3314,7947,59,,
3315,5182,50,,
3316,2300,48,,
3317,4432,48,,
3318,3659,60,,
3319,6719,48,,
3320,3387,50,,
3321,6205,53,,
3322,7907,48,,
3323,515,62,,
3324,3122,48,,
3325,2875,48,,
3326,7905,58,,
3327,1322,59,,
3328,7904,54,1,
3329,8028,59,,
3330,7903,48,,
3331,7997,59,,
3332,3840,59,,
3333,4291,48,,
3334,2326,42,,
3335,5876,48,,
3336,1504,31,,
3337,7901,54,,
3338,7269,58,,
3339,4863,54,,
3340,3312,48,,
3341,2386,42,,
3342,1514,48,,
3343,7310,48,,
3344,4404,48,,
3345,5476,50,,
3346,3795,48,,
3347,5820,50,,
3348,7898,50,,
3349,5511,50,,
3350,7894,58,,
3351,5447,58,,
3352,5381,50,,
3353,3132,42,,
3354,3691,48,,
3355,5848,54,,
3356,4186,48,,
3357,4294,42,,
3358,7879,50,,
3359,3041,59,,
3360,158,62,,
3361,3722,59,,
3362,7476,48,,
3363,7875,60,1,
3364,2054,50,,
3365,7078,48,,
3366,7874,54,,
3367,7500,60,1,
3368,3215,30,,
3369,6133,54,,
3370,3486,33,,
3371,3476,48,,
3372,5310,48,,
3373,7870,53,,
3374,385,61,,
3375,2921,42,1,
3376,3495,42,,
3377,1064,59,,
3378,4055,48,,
3379,3405,48,,
3380,2417,58,,
3381,1237,48,,
3382,7865,48,,
3383,2815,38,,
3384,858,48,,
3385,1293,61,,
3386,2498,50,,
3387,2602,59,,
3388,7462,50,,
3389,2525,48,,
3390,7862,48,,
3391,1797,48,,
3392,4442,50,,
3393,1756,18,,
3394,982,50,,
3395,2203,59,,
3396,4263,48,,
3397,655,42,,
3398,2127,54,,
3399,7859,50,,
3400,7858,48,,
3401,1201,54,,
3402,447,62,,
3403,7106,48,,
3404,380,54,,
3405,7761,59,,
3406,1741,48,,
3407,165,61,,
3408,3603,48,,
3409,5346,50,,
3410,6821,50,,
3411,2714,54,,
3412,7180,59,,
3413,1062,48,,
3414,1063,48,,
3415,7857,54,,
3416,7856,50,,
3417,1161,62,,
3418,7288,50,,
3419,1178,48,,
3420,2468,48,,
3421,5502,62,,
3422,881,50,,
3423,6011,50,,
3424,1645,54,,
3425,2109,50,,
3426,2981,54,,
3427,187,50,,
3428,7852,50,,
3429,3408,48,,
3430,1930,42,,
3431,1037,48,,
3432,7840,59,,
3433,1066,62,,
3434,2922,42,1,
3435,3993,48,,
3436,7851,54,,
3437,5608,54,1,
3438,620,62,,
3439,7850,50,,
3440,7849,48,,
3441,5167,59,,
3442,7847,54,,
3443,7846,58,,
3444,2157,48,,
3445,1044,62,,
3446,3042,54,,
3447,2744,48,,
3448,2590,33,,
3449,1428,48,,
3450,2754,38,,
3451,1583,48,,
3452,4193,48,,
3453,2358,54,,
3454,7843,50,,
3455,365,62,,
3456,2570,48,,
3457,2499,58,,
3458,7842,50,,
3459,5116,48,,
3460,6553,50,,
3461,3738,58,,
3462,8886,54,,
3463,4744,42,,
3464,7833,54,,
3465,3594,48,,
3466,1712,61,1,
3467,4763,48,,
3468,7831,48,,
3469,4811,50,,
3470,7828,48,,
3471,5821,48,,
3472,4967,59,,
3473,7367,54,,
3474,806,50,,
3475,7827,48,,
3476,7352,48,,
3477,851,48,,
3478,2041,61,,
3479,5617,42,,
3480,7826,60,1,
3481,979,61,,
3482,784,61,,
3483,623,48,,
3484,3119,58,,
3485,7824,50,,
3486,7406,50,,
3487,1195,50,,
3488,7821,54,,
3489,5955,50,,
3490,7819,50,,
3491,3868,60,,
3492,7817,50,,
3493,3835,54,1,
3494,5033,48,,
3495,1580,48,,
3496,5823,54,,
3497,10546,63,,
3498,10545,63,1,
3499,530,48,,
3500,7807,48,,
3501,2069,62,,
3502,7806,54,,
3503,2573,54,1,
3504,7802,50,,
3505,7801,50,,
3506,6834,54,,
3507,7797,50,,
3508,7484,50,,
3509,5781,48,,
3510,2997,48,,
3511,2996,48,,
3512,3934,50,,
3513,3004,62,,
3514,7796,54,,
3515,1001,48,,
3516,1133,48,,
3517,560,42,,
3518,7793,50,,
3519,7836,59,,
3520,2215,50,,
3521,4656,50,,
3522,5894,50,,
3523,626,48,,
3524,3082,48,,
3525,7791,48,,
3526,6136,50,,
3527,4718,42,,
3528,5509,48,,
3529,7792,54,,
3530,7790,48,,
3531,6029,48,,
3532,611,33,,
3533,6792,50,,
3534,1501,48,,
3535,5030,50,,
3536,7781,57,,
3537,5402,50,,
3538,2161,54,,
3539,7775,50,,
3540,7773,60,,
3541,1595,48,,
3542,6757,60,,
3543,7289,50,,
3544,6428,50,,
3545,2026,33,,
3546,4524,60,,
3547,1357,56,,
3548,1918,59,,
3549,5473,48,,
3550,7803,48,,
3551,434,61,,
3552,7745,50,,
3553,7165,62,,
3554,7179,59,,
3555,5314,50,,
3556,3223,48,,
3557,7741,50,,
3558,7740,50,,
3559,7739,50,,
3560,7736,50,,
3561,3818,58,,
3562,2718,50,,
3563,6361,54,,
3564,3284,59,,
3565,6003,48,,
3566,4517,48,,
3567,6127,50,,
3568,7733,50,,
3569,5242,48,,
3570,7292,50,,
3571,7731,60,,
3572,1085,54,,
3573,1084,54,,
3574,5899,54,1,
3575,2928,42,1,
3576,7730,50,,
3577,7729,50,,
3578,5150,54,,
3579,671,62,,
3580,7294,56,,
3581,6630,48,,
3582,846,56,,
3583,1212,50,,
3584,4504,61,1,
3585,1360,42,,
3586,3720,51,,
3587,10092,50,,
3588,1968,54,,
3589,6222,58,,
3590,5050,50,,
3591,3801,50,,
3592,3155,50,,
3593,534,62,,
3594,1020,50,,
3595,7702,48,,
3596,7701,50,,
3597,2625,50,,
3598,4985,36,1,
3599,2669,48,,
3600,4869,42,,
3601,7695,48,,
3602,4312,48,,
3603,5031,42,,
3604,7694,48,,
3605,1341,58,,
3606,4355,48,,
3607,1445,48,,
3608,2796,48,,
3609,4437,60,,
3610,6012,48,,
3611,1138,50,,
3612,5144,48,,
3613,1241,48,,
3614,771,62,,
3615,6039,50,,
3616,6519,48,,
3617,519,48,,
3618,4702,48,,
3619,74,62,,
3620,7680,48,,
3621,913,61,,
3622,7080,48,,
3623,523,48,,
3624,2995,48,,
3625,6459,48,,
3626,1998,50,,
3627,5140,50,,
3628,7678,48,,
3629,5397,48,,
3630,5358,48,,
3631,6595,48,,
3632,5812,48,,
3633,2587,50,,
3634,7674,48,,
3635,4704,59,,
3636,3903,48,,
3637,7670,48,,
3638,4917,48,,
3639,185,62,,
3640,3620,50,,
3641,1174,48,,
3642,7668,48,,
3643,3907,48,,
3644,1605,33,,
3645,3721,59,,
3646,407,62,,
3647,7676,55,,
3648,1222,62,,
3649,5882,48,,
3650,6432,48,,
3651,3292,48,,
3652,1427,48,,
3653,1524,48,,
3654,6412,48,,
3655,673,62,,
3656,3593,48,,
3657,6741,50,,
3658,5436,50,,
3659,548,5,,
3660,2806,54,,
3661,7656,54,1,
3662,7655,48,,
3663,3609,30,1,
3664,7654,54,,
3665,5760,48,,
3666,3674,50,,
3667,7650,50,,
3668,5453,48,,
3669,6960,58,,
3670,7618,62,,
3671,7641,50,,
3672,1089,62,,
3673,5181,50,,
3674,7640,50,,
3675,3872,54,,
3676,7303,54,,
3677,5228,59,,
3678,7019,48,,
3679,1153,50,,
3680,7634,48,,
3681,7633,58,,
3682,5554,48,,
3683,926,50,,
3684,3544,50,,
3685,7632,48,,
3686,656,50,,
3687,1348,48,,
3688,1847,48,,
3689,1299,32,1,
3690,7619,59,,
3691,6636,48,,
3692,6676,48,,
3693,7615,48,,
3694,1690,48,,
3695,459,62,,
3696,7610,50,,
3697,7613,48,,
3698,6442,48,,
3699,1467,48,,
3700,7612,48,,
3701,1240,61,,
3702,3449,59,,
3703,6475,48,,
3704,6548,48,,
3705,1415,48,,
3706,6289,48,,
3707,1436,48,,
3708,1537,48,,
3709,6490,48,,
3710,3010,48,,
3711,7607,48,,
3712,7606,53,,
3713,5569,48,,
3714,7605,48,,
3715,7604,58,,
3716,7207,48,,
3717,65,4,,
3718,726,10,1,
3719,3887,59,,
3720,1199,50,,
3721,5869,50,,
3722,6797,50,,
3723,7601,50,,
3724,7600,56,,
3725,6829,48,,
3726,4252,62,,
3727,7513,50,,
3728,5028,50,,
3729,6480,48,,
3730,7599,54,,
