id,guid,name,logo_url,giving_percent,national_percent,state_director_percent,rm_percent,ambassador_percent,giving_option,address_line1,city,state,zip_code,website_url,phone
1,5aa93f1ef2a0ab46c14b0ccb,"Arkansas Family Alliance",https://s3-us-west-2.amazonaws.com/careportal-ip-logo/Arkansas+Family+Alliance.png,4,22,12,33,33,2,"2917 Old Greenwood Road, Suite 4","Fort Smith",Arkansas,72903,https://www.whitsonlife.com/,4796508698
2,5a820926df01c668b8d7c1a4,"Children of the World",https://s3-us-west-2.amazonaws.com/careportal-ip-logo/children_of_the_world.png,4,22,12,33,33,2,"22787 Hwy 98, Ste E-3",Fairhope,Alabama,36532,https://www.childrenoftheworld.com,2519903550
3,5a47266b7b039a556e69732e,"111Project Florida",https://s3-us-west-2.amazonaws.com/careportal-ip-logo/111_logo-white2-1.png,4,22,12,33,33,1,"138 NE 46th","Oklahoma City",Oklahoma,73105,http://www.111project.org,8635148781
4,5a3c0fb84b1fe5556bc04d41,"Promise 686",https://s3-us-west-2.amazonaws.com/careportal-ip-logo/promise_686_logo.png,4,22,12,33,33,2,"4729 Peachtree Industrial Boulevard, Suite 100","Berkeley Lake",Georgia,30092,https://www.promise686.org,7702746560
5,5a3c0fa74e5ef75641d50591,"111Project Oklahoma",https://s3-us-west-2.amazonaws.com/careportal-ip-logo/111_logo-white2-1.png,4,22,12,33,33,1,"138 NE 46th","Oklahoma City",Oklahoma,73105,http://www.111project.org,9182376880
6,5a3c0f99fff0675ad1ea0de2,"Beautiful Redemption",https://s3-us-west-2.amazonaws.com/careportal-ip-logo/beautiful_redemption_logo.png,4,22,12,33,33,1,"PO Box 33","Plamer Lake",Colorado,80133,http://www.beautifulredemption.com,7196592781
7,5a3c0f84fff0675ad1ea0da5,"Child Bridge",https://s3-us-west-2.amazonaws.com/careportal-ip-logo/child_bridge_logo.jpg,4,20,12,33,33,2,"PO Box 310","Big Fork",Montana,59911,https://www.childbridgemontana.org,4068372247
8,5a3c0f70cd6a6d5b2cfcd631,"COMPASS Nebraska",https://s3-us-west-2.amazonaws.com/careportal-ip-logo/compass_nebraska_logo.png,4,22,12,33,33,2,"514 W. 11th St",Kearney,Nebraska,68845,https://www.compassnebraska.org,3082374085
9,5a2ef9bce4902c5575d5d398,"Alaska Test",https://s3-us-west-2.amazonaws.com/careportal-email-assets/careportal-text-logo-244w.png,4,22,12,33,33,2,,,"\N","\N",,"\N"
10,5a0732da15953d55b0c80eb8,"The Global Orphan Project",https://s3-us-west-2.amazonaws.com/careportal-ip-logo/logo_goproject1.png,4,22,12,33,33,1,"3161 Wyandotte Street","Kansas City",Missouri,64111,http://goproject.org,8165368333
11,5ace3f96594e7563e721b470,"6 Stones",https://s3-us-west-2.amazonaws.com/careportal-ip-logo/6stones.png,4,22,12,33,33,2,"209 N. Industrial Blvd, Suite 241",Bedford,Texas,76021,http://www.6stones.org/,8178687400
