tier,agency_id,county_id
1,1,78
1,3,931
1,4,859
3,5,1942
3,5,579
3,5,2408
1,6,661
1,7,858
1,8,1732
1,9,2285
1,10,78
1,11,2506
1,11,2508
1,13,931
1,17,579
1,18,1601
1,19,1601
1,20,1601
1,22,1146
1,23,1146
1,24,2758
1,25,1446
1,26,1441
1,27,300
1,28,1267
1,28,2297
1,28,1189
1,29,1785
1,30,931
1,30,1564
1,31,1475
1,31,306
3,32,1441
3,32,3111
1,33,2435
1,34,1459
2,34,1459
3,34,1459
1,35,1872
1,36,931
1,37,1459
2,37,1459
1,38,697
1,38,1564
1,38,931
1,39,2427
1,40,1267
1,40,1189
1,41,2285
1,41,550
1,41,423
1,41,1376
1,42,858
3,43,1441
3,43,3111
1,44,2126
1,45,1165
1,46,759
1,46,2972
1,46,651
1,46,477
1,46,1842
1,46,2459
1,46,2101
1,47,1459
1,47,3111
1,47,1441
1,47,1376
2,47,1459
3,47,1459
1,48,78
1,48,320
1,48,2457
1,48,766
1,48,1130
1,48,2808
1,48,1446
1,48,2325
1,48,2761
1,48,372
1,48,2104
1,48,172
1,48,844
1,48,859
1,48,1151
1,48,1308
1,48,1725
1,48,1917
1,48,2086
1,48,2587
1,48,2652
1,48,2768
1,48,2819
1,48,3008
1,48,3050
1,48,3068
1,48,3136
1,48,869
1,48,3061
1,48,2379
1,48,1473
1,49,2768
1,50,759
1,50,568
1,50,2972
1,50,2459
1,50,477
1,50,2692
1,50,2834
1,50,2126
1,50,651
1,50,1842
1,50,2101
1,51,2692
1,52,900
1,53,1345
1,54,105
1,54,2758
1,54,2233
1,54,1443
1,54,300
1,54,550
1,54,594
1,54,1376
1,54,1552
1,54,2285
1,54,2506
1,54,2508
1,54,2520
1,54,65
1,54,423
1,54,383
1,54,2582
1,54,1938
1,54,227
2,54,1376
1,55,1443
1,55,1376
1,55,550
1,55,2285
1,55,423
1,56,1443
1,56,2285
1,56,1376
1,56,550
1,57,1872
1,57,2591
1,57,3111
1,57,1441
1,57,2404
1,57,2411
1,57,143
1,58,2960
1,58,2821
1,58,2055
1,58,2610
1,58,2408
1,58,2427
1,58,143
1,58,1224
1,58,1508
1,58,1796
1,58,1872
1,58,2404
1,58,2411
1,58,2591
1,58,2675
1,58,579
1,58,1942
1,58,867
1,58,1070
1,58,2099
1,58,2156
1,58,2249
1,58,2461
1,58,2473
1,58,2477
1,58,2649
1,59,2591
1,59,1376
1,59,247
1,59,1544
1,59,1981
1,59,475
1,59,661
1,59,1441
1,59,2610
1,59,3111
1,60,2960
1,60,1544
1,60,247
1,60,2408
1,60,1981
1,60,2427
1,60,661
1,60,3111
1,60,143
1,60,475
1,60,1224
1,60,1441
1,60,1508
1,60,1796
1,60,1872
1,60,2404
1,60,2411
1,60,2591
1,60,2610
1,60,2675
1,60,579
1,60,1942
1,61,2812
1,61,1146
1,61,1601
1,61,806
1,61,605
1,62,1785
1,62,2272
2,62,2272
1,63,1908
1,63,2394
1,63,1459
2,63,1909
2,63,1459
3,63,3111
3,63,1459
