implementing_partner_id,user_id,admin,ambassador
1,245,1,0
5,450,1,0
7,515,1,0
2,681,1,0
10,1095,1,0
4,1164,1,0
10,1176,1,0
4,1894,1,0
10,2201,1,0
10,4099,1,0
8,2445,1,0
8,2450,1,0
10,2465,1,0
4,2564,1,0
10,2596,1,1
10,2597,1,1
10,2752,1,0
10,3285,1,0
10,3286,1,0
7,5541,1,0
4,3626,1,0
10,3833,1,0
10,3997,1,0
8,4388,1,0
4,4516,1,0
7,4855,1,0
10,7896,1,0
7,5542,1,0
7,5543,1,0
10,5694,1,0
5,6386,1,0
10,6381,1,0
7,6604,1,0
10,6834,1,0
6,7057,1,0
10,7287,1,0
5,7254,1,0
10,7318,1,0
10,7338,1,0
5,10104,1,1
10,7861,1,1
10,9846,1,0
10,8882,1,0
10,7871,1,0
10,8164,1,0
10,9088,1,0
10,8084,1,0
10,9529,1,0
10,9338,1,0
10,6380,1,0
10,10498,1,1
10,3052,0,1
5,9202,0,1
10,8977,0,1
10,2595,0,1
5,682,0,1
