id,name,guid
1,Tutoring,5a90422b66d0bb7470596903
2,Mentoring,5a904222f3cb9043640ad487
3,"Family / Social Worker Team Meetings",59a46be3ccba5644ffdd655f
4,"Child Care / Supervision",59a46bd437ec1f444611d595
5,Transportation,59a46bb24d37f534fa3aa262
