rep_id,county_id,tier
1,1345,1
1,1345,2
1,1345,3
19,858,1
43,1459,1
43,1459,2
43,1459,3
48,2915,1
48,2915,2
48,2915,3
63,1785,1
63,1785,2
63,1785,3
66,1872,1
66,1872,2
66,1872,3
70,568,1
70,568,2
70,568,3
80,2610,1
80,2610,2
80,2610,3
101,2285,1
101,2285,2
101,2285,3
166,2812,1
166,2812,2
166,2812,3
202,2758,1
202,227,1
202,2233,1
202,1443,1
202,300,1
202,550,1
202,594,1
202,1376,1
202,1552,1
202,2285,1
202,2508,1
202,2506,1
202,2520,1
202,383,1
202,2582,1
202,1938,1
202,2758,2
202,227,2
202,2233,2
202,1443,2
202,300,2
202,550,2
202,594,2
202,1376,2
202,1552,2
202,2285,2
202,2508,2
202,2506,2
202,2520,2
202,383,2
202,2582,2
202,1938,2
202,2758,3
202,227,3
202,2233,3
202,1443,3
202,300,3
202,550,3
202,594,3
202,1376,3
202,1552,3
202,2285,3
202,2508,3
202,2506,3
202,2520,3
202,383,3
202,2582,3
202,1938,3
223,2834,2
223,2834,3
263,859,1
273,550,1
273,550,2
273,550,3
281,300,1
281,300,2
281,300,3
318,651,1
318,2459,1
318,1842,1
318,651,2
318,2459,2
318,1842,2
318,651,3
318,2459,3
318,1842,3
319,1146,1
319,1146,2
319,1146,3
337,1443,1
337,423,1
337,550,1
337,2285,1
337,1376,1
337,1443,2
337,423,2
337,550,2
337,2285,2
337,1376,2
337,1443,3
337,423,3
337,550,3
337,2285,3
337,1376,3
420,2435,1
420,2435,2
420,2435,3
488,1146,1
488,1146,2
488,1146,3
490,2812,1
490,1146,1
490,1601,1
490,806,1
490,605,1
490,2812,2
490,1146,2
490,1601,2
490,806,2
490,605,2
490,2812,3
490,1146,3
490,1601,3
490,806,3
490,605,3
528,2610,1
528,2427,1
528,2591,1
528,2404,1
528,1224,1
528,2675,1
528,2411,1
528,143,1
528,1872,1
528,1796,1
528,1942,1
528,579,1
528,2610,2
528,2427,2
528,2591,2
528,2404,2
528,1224,2
528,2675,2
528,2411,2
528,143,2
528,1872,2
528,1796,2
528,1942,2
528,579,2
528,2610,3
528,2427,3
528,2591,3
528,2404,3
528,1224,3
528,2675,3
528,2411,3
528,143,3
528,1872,3
528,1796,3
528,1942,3
528,579,3
564,1441,1
564,1441,2
564,1441,3
574,759,1
574,2101,1
574,568,1
574,2972,1
574,2459,1
574,477,1
574,2692,1
574,2834,1
574,2126,1
574,651,1
574,1842,1
574,759,2
574,2101,2
574,568,2
574,2972,2
574,2459,2
574,477,2
574,2692,2
574,2834,2
574,2126,2
574,651,2
574,1842,2
574,759,3
574,2101,3
574,568,3
574,2972,3
574,2459,3
574,477,3
574,2692,3
574,2834,3
574,2126,3
574,651,3
574,1842,3
596,858,1
596,858,2
596,858,3
600,423,1
604,227,1
604,227,2
604,227,3
628,1443,1
628,1443,2
628,1443,3
631,931,1
631,931,2
631,931,3
645,2692,1
645,2692,2
645,2692,3
652,2126,1
652,2126,2
652,2126,3
699,2285,1
712,1459,1
712,1459,2
712,1459,3
717,300,1
717,65,1
717,300,2
717,65,2
717,300,3
717,65,3
746,2812,1
746,2812,2
746,2812,3
761,423,1
761,423,2
761,423,3
766,1601,1
766,1601,2
766,1601,3
794,1441,1
794,3111,1
794,1441,2
794,3111,2
794,1441,3
794,3111,3
799,2104,1
799,2104,2
799,2104,3
870,1785,1
870,1785,2
870,1785,3
871,1938,1
871,2582,1
871,1938,2
871,2582,2
871,1938,3
871,2582,3
884,1785,1
884,1785,2
884,1785,3
903,1732,1
913,963,1
913,963,2
913,963,3
960,1785,1
960,1785,2
960,1785,3
961,1785,1
961,1785,2
961,1785,3
963,1459,1
963,1459,2
963,1459,3
973,931,1
973,931,2
973,931,3
984,859,1
1002,78,1
1018,806,1
1018,806,2
1018,806,3
1019,2162,1
1019,2162,2
1019,2162,3
1025,1872,1
1025,1872,2
1025,1872,3
1074,550,1
1074,550,2
1074,550,3
1086,1441,1
1086,3111,1
1086,1441,2
1086,3111,2
1086,1441,3
1086,3111,3
1087,1446,1
1087,1446,2
1087,1446,3
1106,697,1
1106,697,2
1106,697,3
1173,3136,1
1173,2587,1
1173,2768,1
1173,2086,1
1173,3050,1
1173,3136,2
1173,2587,2
1173,2768,2
1173,2086,2
1173,3050,2
1173,3136,3
1173,2587,3
1173,2768,3
1173,2086,3
1173,3050,3
1174,78,1
1174,320,1
1174,3136,1
1174,172,1
1174,372,1
1174,766,1
1174,844,1
1174,859,1
1174,869,1
1174,1130,1
1174,1151,1
1174,1308,1
1174,1446,1
1174,1473,1
1174,1725,1
1174,1917,1
1174,2086,1
1174,2104,1
1174,2325,1
1174,2379,1
1174,2457,1
1174,2587,1
1174,2652,1
1174,2761,1
1174,2768,1
1174,2808,1
1174,2819,1
1174,3008,1
1174,3050,1
1174,3061,1
1174,3068,1
1174,320,2
1174,3136,2
1174,172,2
1174,372,2
1174,766,2
1174,844,2
1174,859,2
1174,869,2
1174,1130,2
1174,1151,2
1174,1308,2
1174,1446,2
1174,1473,2
1174,1725,2
1174,1917,2
1174,2086,2
1174,2104,2
1174,2325,2
1174,2379,2
1174,2457,2
1174,2587,2
1174,2652,2
1174,2761,2
1174,2768,2
1174,2808,2
1174,2819,2
1174,3008,2
1174,3050,2
1174,3061,2
1174,3068,2
1174,320,3
1174,3136,3
1174,172,3
1174,372,3
1174,766,3
1174,844,3
1174,859,3
1174,869,3
1174,1130,3
1174,1151,3
1174,1308,3
1174,1446,3
1174,1473,3
1174,1725,3
1174,1917,3
1174,2086,3
1174,2104,3
1174,2325,3
1174,2379,3
1174,2457,3
1174,2587,3
1174,2652,3
1174,2761,3
1174,2768,3
1174,2808,3
1174,2819,3
1174,3008,3
1174,3050,3
1174,3061,3
1174,3068,3
1175,2379,1
1175,1151,1
1175,1725,1
1175,2325,1
1175,2379,2
1175,1151,2
1175,1725,2
1175,2325,2
1175,2379,3
1175,1151,3
1175,1725,3
1175,2325,3
1176,859,1
1176,859,2
1176,859,3
1177,78,1
1177,3061,1
1177,3008,1
1177,2104,1
1177,372,1
1177,3061,2
1177,3008,2
1177,2104,2
1177,372,2
1177,3061,3
1177,3008,3
1177,2104,3
1177,372,3
1178,1473,1
1178,766,1
1178,1446,1
1178,2761,1
1178,869,1
1178,2457,1
1178,1473,2
1178,766,2
1178,1446,2
1178,2761,2
1178,869,2
1178,2457,2
1178,1473,3
1178,766,3
1178,1446,3
1178,2761,3
1178,869,3
1178,2457,3
1179,1130,1
1179,2652,1
1179,1130,2
1179,2652,2
1179,1130,3
1179,2652,3
1181,320,1
1181,172,1
1181,3068,1
1181,2819,1
1181,320,2
1181,172,2
1181,3068,2
1181,2819,2
1181,320,3
1181,172,3
1181,3068,3
1181,2819,3
1182,201,1
1182,201,2
1182,201,3
1183,844,1
1183,1308,1
1183,1917,1
1183,2808,1
1183,844,2
1183,1308,2
1183,1917,2
1183,2808,2
1183,844,3
1183,1308,3
1183,1917,3
1183,2808,3
1205,859,1
1224,300,1
1224,300,2
1224,300,3
1292,2404,1
1292,2404,2
1292,2404,3
1312,1267,1
1312,2297,1
1312,1189,1
1312,1267,2
1312,2297,2
1312,1189,2
1312,1267,3
1312,2297,3
1312,1189,3
1321,605,1
1321,605,2
1321,605,3
1332,2960,1
1332,2821,1
1332,2055,1
1332,2610,1
1332,2427,1
1332,1942,1
1332,143,1
1332,1224,1
1332,1508,1
1332,1796,1
1332,1872,1
1332,2404,1
1332,2411,1
1332,2591,1
1332,2675,1
1332,579,1
1332,2408,1
1332,867,1
1332,1070,1
1332,2099,1
1332,2156,1
1332,2249,1
1332,2461,1
1332,2473,1
1332,2477,1
1332,2649,1
1332,2610,2
1332,2427,2
1332,1942,2
1332,143,2
1332,1224,2
1332,1508,2
1332,1796,2
1332,1872,2
1332,2404,2
1332,2411,2
1332,2591,2
1332,2675,2
1332,579,2
1332,2408,2
1332,2610,3
1332,2427,3
1332,1942,3
1332,143,3
1332,1224,3
1332,1508,3
1332,1796,3
1332,1872,3
1332,2404,3
1332,2411,3
1332,2591,3
1332,2675,3
1332,579,3
1332,2408,3
1334,105,1
1334,105,2
1334,105,3
1362,1981,1
1362,1376,1
1362,247,1
1362,1544,1
1362,661,1
1362,1441,1
1362,2610,1
1362,3111,1
1362,475,1
1362,1981,2
1362,1376,2
1362,247,2
1362,1544,2
1362,661,2
1362,1441,2
1362,2610,2
1362,3111,2
1362,475,2
1362,1981,3
1362,1376,3
1362,247,3
1362,1544,3
1362,661,3
1362,1441,3
1362,2610,3
1362,3111,3
1362,475,3
1363,1441,1
1363,3111,1
1363,1441,2
1363,3111,2
1363,1441,3
1363,3111,3
1365,1376,1
1365,1376,2
1365,1376,3
1376,423,1
1376,1376,1
1376,423,2
1376,1376,2
1376,423,3
1376,1376,3
1396,"\N",1
1396,"\N",2
1396,"\N",3
1415,300,2
1415,2285,2
1415,550,2
1415,65,2
1418,550,1
1418,550,2
1418,550,3
1421,2812,1
1421,2812,2
1421,2812,3
1424,2540,1
1424,2104,1
1424,2540,2
1424,2104,2
1424,2540,3
1424,2104,3
1432,859,1
1465,300,1
1465,300,2
1465,300,3
1471,1564,1
1471,1564,2
1471,1564,3
1479,579,3
1479,1942,3
1479,2408,3
1481,931,1
1481,931,2
1481,931,3
1483,1146,1
1483,1146,2
1483,1146,3
1484,2520,1
1484,1552,1
1484,2520,2
1484,1552,2
1484,2520,3
1484,1552,3
1512,858,1
1512,858,2
1512,858,3
1525,2758,1
1525,2758,2
1525,2758,3
1526,2692,1
1526,2692,2
1526,2692,3
1528,931,1
1528,931,2
1528,931,3
1533,300,1
1533,300,2
1533,300,3
1573,1785,1
1578,2960,1
1578,2427,1
1578,2427,2
1578,2427,3
1599,858,1
1627,2126,1
1627,2126,2
1627,2126,3
1645,2768,1
1645,2768,2
1645,2768,3
1656,2506,1
1656,2508,1
1678,900,1
1678,900,2
1678,900,3
1687,759,1
1687,2972,1
1687,651,1
1687,477,1
1687,1842,1
1687,2459,1
1687,2101,1
1687,759,2
1687,2972,2
1687,651,2
1687,477,2
1687,1842,2
1687,2459,2
1687,2101,2
1687,759,3
1687,2972,3
1687,651,3
1687,477,3
1687,1842,3
1687,2459,3
1687,2101,3
1691,2761,1
1691,2761,2
1691,2761,3
1769,2126,1
1769,2126,2
1769,2126,3
1805,2972,1
1805,2101,1
1805,2972,2
1805,2101,2
1805,2972,3
1805,2101,3
1809,1785,1
1809,1785,2
1809,1785,3
1847,306,1
1847,306,2
1847,306,3
1858,661,1
1863,2520,1
1863,1552,1
1863,2520,2
1863,1552,2
1863,2520,3
1863,1552,3
1866,1146,1
1866,1146,2
1866,1146,3
1901,2285,1
1907,300,1
1907,300,2
1907,300,3
1908,1601,1
1908,1601,2
1908,1601,3
1911,2411,1
1911,1796,1
1911,1872,1
1911,2411,2
1911,1796,2
1911,1872,2
1911,2411,3
1911,1796,3
1911,1872,3
1916,2675,1
1916,2404,1
1916,2675,2
1916,2404,2
1916,2675,3
1916,2404,3
1963,858,1
1963,858,2
1963,858,3
1965,931,1
1971,1981,1
1971,1981,2
1971,1981,3
1973,463,1
1973,463,2
1973,463,3
2013,3061,1
2013,372,1
2026,550,1
2026,550,2
2026,550,3
2095,2427,1
2095,2427,2
2095,2427,3
2103,1601,1
2103,1601,2
2103,1601,3
2117,1785,1
2153,300,1
2153,300,2
2153,300,3
2165,1601,1
2165,1601,2
2165,1601,3
2180,477,1
2180,477,2
2180,477,3
2192,858,1
2192,858,2
2192,858,3
2203,475,1
2203,475,2
2203,475,3
2206,931,1
2210,985,1
2210,985,2
2210,985,3
2237,1785,1
2237,1785,2
2237,1785,3
2245,661,1
2245,475,1
2245,661,2
2245,475,2
2245,661,3
2245,475,3
2259,247,1
2259,247,2
2259,247,3
2283,1224,1
2283,1224,2
2283,1224,3
2285,1601,1
2285,1601,2
2285,1601,3
2286,1146,1
2286,1146,2
2286,1146,3
2358,143,1
2358,143,2
2358,143,3
2366,859,1
2366,859,2
2366,859,3
2403,859,1
2403,859,2
2403,859,3
2405,1785,1
2405,1785,2
2405,1785,3
2412,1601,1
2412,1601,2
2412,1601,3
2426,931,1
2426,931,2
2426,931,3
2434,1544,1
2434,1544,2
2434,1544,3
2438,759,1
2438,759,2
2438,759,3
2440,3111,1
2440,1441,1
2440,3111,2
2440,1441,2
2440,3111,3
2440,1441,3
2441,3111,1
2441,3111,2
2441,3111,3
2471,2591,1
2471,2591,2
2471,2591,3
2524,858,1
2524,858,2
2524,858,3
2548,143,1
2548,2404,1
2548,2411,1
2548,1872,1
2647,1165,1
2647,1165,2
2647,1165,3
2663,1189,1
2663,1267,1
2663,1189,2
2663,1267,2
2663,1189,3
2663,1267,3
2690,1601,1
2690,1601,2
2690,1601,3
2749,2272,1
2749,2272,2
2749,2272,3
2776,550,1
2776,550,2
2776,550,3
2778,931,1
2778,931,2
2778,931,3
2804,858,1
2804,858,2
2804,858,3
2825,931,1
2825,931,2
2825,931,3
2828,2272,1
2828,2272,2
2828,2272,3
2933,2435,1
2933,2435,2
2933,2435,3
2947,300,1
2947,300,2
2947,300,3
2958,579,1
2958,579,2
2958,579,3
2971,1441,1
2971,1441,2
2971,1441,3
3014,2610,1
3014,2427,1
3014,2591,1
3014,2404,1
3014,1224,1
3014,2675,1
3014,143,1
3014,2411,1
3014,1872,1
3014,1796,1
3014,1942,1
3014,579,1
3014,2610,2
3014,2427,2
3014,2591,2
3014,2404,2
3014,1224,2
3014,2675,2
3014,143,2
3014,2411,2
3014,1872,2
3014,1796,2
3014,1942,2
3014,579,2
3014,2610,3
3014,2427,3
3014,2591,3
3014,2404,3
3014,1224,3
3014,2675,3
3014,143,3
3014,2411,3
3014,1872,3
3014,1796,3
3014,1942,3
3014,579,3
3021,931,1
3021,931,2
3021,931,3
3062,1544,1
3062,1981,1
3062,247,1
3062,661,1
3062,475,1
3062,1544,2
3062,1981,2
3062,247,2
3062,661,2
3062,475,2
3062,1544,3
3062,1981,3
3062,247,3
3062,661,3
3062,475,3
3093,2758,1
3093,2758,2
3093,2758,3
3138,1459,1
3138,1459,2
3138,1459,3
3145,605,1
3145,605,2
3145,605,3
3157,2812,1
3209,931,1
3266,2506,1
3266,2508,1
3266,2506,2
3266,2508,2
3266,2506,3
3266,2508,3
3335,2520,1
3335,1552,1
3335,2520,2
3335,1552,2
3335,2520,3
3335,1552,3
3370,661,1
3370,661,2
3370,661,3
3374,2610,1
3374,2610,2
3374,2610,3
3383,858,1
3383,858,2
3383,858,3
3442,858,1
3442,858,2
3442,858,3
3445,383,1
3445,2233,1
3445,383,2
3445,2233,2
3445,383,3
3445,2233,3
3474,2812,1
3474,2812,2
3474,2812,3
3488,3111,1
3488,1441,1
3488,3111,2
3488,1441,2
3488,3111,3
3488,1441,3
3502,300,1
3502,300,2
3502,300,3
3507,1908,1
3507,1459,1
3507,1908,2
3507,1459,2
3507,1908,3
3507,1459,3
3512,550,1
3512,550,2
3512,550,3
3562,1785,1
3583,2508,1
3583,2508,2
3583,2508,3
3584,858,1
3584,858,2
3584,858,3
3593,806,1
3593,806,2
3593,806,3
3607,931,1
3607,931,2
3607,931,3
3671,594,1
3671,594,2
3671,594,3
3673,1564,1
3673,931,1
3673,1564,2
3673,931,2
3673,1564,3
3673,931,3
3699,3111,1
3699,3111,2
3699,3111,3
3729,78,1
