church_id,group_id,user_id,group_leader
482,1,88,1
716,85,153,1
177,3,201,1
177,4,525,1
177,4,526,1
1403,5,555,1
324,7,973,1
324,7,971,1
324,7,972,1
1520,18,3285,1
1520,18,8660,1
177,8,1046,1
868,90,1390,1
677,12,1643,1
482,13,1790,1
482,15,1845,1
482,19,1846,1
482,20,1847,1
482,2,1848,1
482,21,1849,1
482,22,1850,1
482,23,1851,1
1269,17,2026,1
1361,24,2255,1
1361,353,2257,1
1361,353,2259,1
1663,11,2276,1
482,27,3927,1
1129,29,2360,1
716,28,2363,1
1663,26,2392,1
1129,29,2419,1
1129,25,2421,1
586,37,3889,1
1443,152,2930,1
1443,152,8914,1
1443,152,8597,1
1687,73,2944,1
1183,32,3102,1
1687,73,3219,1
669,33,3531,1
1520,35,3660,1
1210,38,3776,1
1210,38,3777,1
1520,30,3829,1
1520,30,3830,1
1520,30,3831,1
1269,193,3849,1
586,36,3887,1
586,41,3990,1
669,59,5438,1
898,45,4264,1
898,43,4180,1
1210,46,4251,1
868,114,4412,1
716,48,4442,1
1269,49,4495,1
716,51,4505,1
586,53,4575,1
586,47,4579,1
716,50,4598,1
1520,52,4719,1
1520,56,4766,1
1520,55,4790,1
646,54,5004,1
716,57,4824,1
1520,102,4829,1
669,58,4842,1
669,59,5008,1
1520,61,5033,1
1520,61,4900,1
716,62,4922,1
716,63,4923,1
1046,86,4972,1
1330,65,7463,1
1330,65,5024,1
716,68,5192,1
868,72,5205,1
868,69,5206,1
716,66,5232,1
716,67,5237,1
716,70,5238,1
716,74,5247,1
1560,34,5327,1
1560,34,8831,1
1687,73,5351,1
1687,73,5352,1
1687,73,5353,1
1496,77,5354,1
716,80,5359,1
716,78,5360,1
868,89,5401,1
716,81,5448,1
716,82,5457,1
1471,75,5459,1
716,83,5460,1
868,87,5553,1
868,88,5554,1
868,89,5576,1
868,91,5603,1
868,92,5604,1
868,94,5664,1
868,95,5675,1
868,96,5680,1
868,97,5681,1
868,98,5682,1
868,101,5768,1
868,103,5805,1
868,104,5806,1
868,106,6073,1
1520,102,6098,1
1356,111,6144,1
868,108,6249,1
1297,113,6379,1
1520,170,6959,1
1443,316,8353,1
1377,120,7170,1
1269,112,10035,1
1183,335,10257,1
1183,168,9408,1
1564,274,10442,1
1373,218,8468,1
1496,145,9230,1
1183,144,7701,1
1183,144,9679,1
1719,147,8023,1
1568,122,10164,1
1568,122,8911,1
1183,148,10065,1
1700,150,8256,1
1269,149,7783,1
1377,119,9741,1
1183,151,10338,1
1183,151,9537,1
1443,152,10176,1
1377,153,10314,1
1377,153,8896,1
1373,154,10481,1
1183,156,9122,1
1183,155,7676,1
1367,158,9522,1
1269,159,8613,1
1496,157,10519,1
1619,160,8956,1
1568,123,8020,1
1183,161,8619,1
1367,162,9090,1
1367,162,8904,1
1367,162,9313,1
1367,162,8508,1
1700,163,10225,1
1367,164,7618,1
1367,164,8631,1
1564,166,9610,1
1269,167,9116,1
1183,133,7991,1
1373,107,7831,1
1269,171,8849,1
1352,173,7948,1
1183,172,8123,1
1564,174,10419,1
1619,176,9278,1
1564,175,9422,1
1564,178,8834,1
1719,181,8743,1
1568,180,8632,1
1568,180,8507,1
1330,183,8535,1
1330,183,8534,1
1367,182,9048,1
1367,182,7971,1
1377,185,8070,1
1183,186,8601,1
1183,186,8989,1
1183,187,9108,1
1619,188,8007,1
1520,189,8875,1
1183,190,9700,1
1443,191,9151,1
1269,193,9451,1
1667,192,8194,1
1183,194,9406,1
1183,194,8551,1
1443,195,9933,1
1183,197,9205,1
1183,198,7956,1
1568,200,9200,1
1352,199,8686,1
1352,199,8462,1
1367,202,8174,1
1367,202,8892,1
1629,204,9810,1
1629,204,9378,1
1619,203,9109,1
1357,137,10007,1
1357,205,8672,1
1377,142,8667,1
1373,206,8860,1
1373,206,8873,1
1443,209,10174,1
1443,209,10175,1
1367,210,8492,1
1367,210,8800,1
1183,211,7939,1
1183,213,8567,1
1373,212,10494,1
1629,251,7662,1
1667,214,10005,1
1183,215,8905,1
1183,217,8008,1
1667,132,9032,1
1373,220,9317,1
1667,221,10288,1
1667,221,9477,1
1619,222,7864,1
1667,223,10458,1
1667,223,10223,1
1568,224,9412,1
1352,226,9160,1
1352,226,9038,1
1568,225,10441,1
1443,227,9289,1
1352,230,9697,1
1619,231,9046,1
1619,231,8998,1
1183,232,8774,1
1183,232,7913,1
1746,233,8570,1
1746,233,7959,1
1619,293,8680,1
1269,235,10003,1
1443,234,10417,1
1443,234,9905,1
1183,236,7960,1
1619,238,10443,1
1269,237,9085,1
1367,240,8249,1
1269,241,8506,1
1568,124,8285,1
1568,140,7915,1
1357,242,8202,1
1568,245,8006,1
1568,247,10155,1
1568,247,8195,1
1297,248,10504,1
1667,129,9847,1
1183,253,8073,1
1183,254,8289,1
1183,254,10542,1
1373,255,8823,1
1568,128,7924,1
1496,257,10479,1
1564,256,10386,1
1269,258,8880,1
1619,267,10093,1
1496,260,10170,1
1568,262,8994,1
1444,263,9489,1
1443,264,8684,1
1719,265,8065,1
1367,139,9144,1
1746,268,9079,1
1746,268,9795,1
1269,270,10281,1
1269,269,10395,1
1269,269,10193,1
1357,271,8864,1
1619,273,8781,1
1352,272,8182,1
1619,275,7975,1
1619,138,8829,1
1619,138,10369,1
1619,278,8897,1
1619,278,7705,1
1746,276,7787,1
1183,277,8140,1
1330,281,8582,1
1568,283,9510,1
1373,282,9358,1
1269,284,9852,1
1443,285,8999,1
1443,285,9789,1
1443,286,8471,1
1443,287,9565,1
1269,288,9123,1
1352,135,10067,1
1367,290,8894,1
1269,292,9631,1
1443,289,8922,1
1443,289,9943,1
1373,291,9304,1
1443,121,9310,1
1719,134,8130,1
1367,295,8357,1
1367,295,9869,1
1564,297,8981,1
1629,131,8732,1
1367,298,10454,1
1373,299,7633,1
1719,301,8112,1
1651,302,9474,1
1651,302,8923,1
1373,303,7966,1
1330,304,8797,1
1330,304,8794,1
1367,306,9299,1
1183,307,10180,1
1357,309,10217,1
1443,310,7805,1
1443,308,8598,1
1443,308,10287,1
1377,313,8081,1
1568,314,9080,1
1373,315,8855,1
1373,315,7654,1
1667,317,9420,1
1183,318,8626,1
1330,320,9725,1
1667,319,8170,1
1367,321,9745,1
1367,321,7876,1
1330,322,9547,1
1373,141,8941,1
1373,141,9334,1
1568,325,9074,1
1619,323,10452,1
1357,324,10316,1
1367,327,7798,1
1667,130,10070,1
1568,326,7869,1
1568,326,8583,1
1443,330,10289,1
1443,330,8126,1
1352,329,8779,1
1183,334,8466,1
1352,333,9875,1
1667,331,10296,1
1667,331,8272,1
1443,337,9212,1
1367,336,9748,1
1183,338,9691,1
1496,340,7821,1
1746,343,7952,1
1719,342,8612,1
1443,345,8525,1
1443,345,7759,1
1568,346,10327,1
1443,347,10034,1
1619,126,9932,1
1619,349,10467,1
1619,349,10127,1
1568,351,10438,1
1568,351,8461,1
1361,353,9481,1
1361,353,9764,1
1361,353,9764,1
